(footprint "Screw_Conn_4.5x4.5" (version 20211014) (generator pcbnew)
  (layer "F.Cu")
  (tedit 61FAB819)
  (fp_text reference "REF**" (at 4.826 21.082 unlocked) (layer "F.SilkS") hide
    (effects (font (size 1 1) (thickness 0.153)))
    (tstamp 6ff874d0-4ac5-414c-83a7-573eda4c7703)
  )
  (fp_text value "Screw_Conn_4.5x4.5" (at 0 23.622 unlocked) (layer "F.Fab")
    (effects (font (size 1 1) (thickness 0.15)))
    (tstamp 9538e4ed-27e6-4c37-b989-9859dc0d49e8)
  )
  (fp_text user "${REFERENCE}" (at 0 25.146 unlocked) (layer "F.Fab")
    (effects (font (size 1 1) (thickness 0.15)))
    (tstamp e1105432-6a2f-45d9-8a08-47401d087cf4)
  )
  (fp_circle (center 18 18) (end 21.3 18) (layer "F.CrtYd") (width 0.1) (fill none) (tstamp 03caada9-9e22-4e2d-9035-b15433dfbb17))
  (fp_circle (center 18 -18) (end 21.3 -18) (layer "F.CrtYd") (width 0.1) (fill none) (tstamp 12422a89-3d0c-485c-9386-f77121fd68fd))
  (fp_circle (center -18 -18) (end -14.7 -18) (layer "F.CrtYd") (width 0.1) (fill none) (tstamp 3aaee4c4-dbf7-49a5-a620-9465d8cc3ae7))
  (fp_circle (center -18 18) (end -14.7 18) (layer "F.CrtYd") (width 0.1) (fill none) (tstamp a17904b9-135e-4dae-ae20-401c7787de72))
  (fp_circle (center 0 18) (end 3.3 18) (layer "F.CrtYd") (width 0.1) (fill none) (tstamp c5eb1e4c-ce83-470e-8f32-e20ff1f886a3))
  (fp_rect (start -22.5 -22.5) (end 22.5 22.5) (layer "F.Fab") (width 0.1) (fill none) (tstamp dd2f6b13-9e35-4a67-90ac-cf0d1ea34e5a))
  (pad "1" thru_hole circle (at -18 -18) (size 6 6) (drill 3.4) (layers *.Cu *.Mask) (tstamp 67621f9e-0a6a-4778-ad69-04dcf300659c))
  (pad "2" thru_hole circle (at 18 -18) (size 6 6) (drill 3.4) (layers *.Cu *.Mask) (tstamp 48f827a8-6e22-4a2e-abdc-c2a03098d883))
  (pad "3" thru_hole circle (at -18 18) (size 6 6) (drill 3.4) (layers *.Cu *.Mask) (tstamp ec9e24d8-d1c5-40e2-9812-dc315d05f470))
  (pad "4" thru_hole circle (at 18 18) (size 6 6) (drill 3.4) (layers *.Cu *.Mask) (tstamp f022716e-b121-4cbf-a833-20e924070c22))
  (pad "5" thru_hole circle (at 0 18) (size 6 6) (drill 3.4) (layers *.Cu *.Mask) (tstamp c19dbe3c-ced0-48f7-a91d-777569cfb936))
)
