G04 #@! TF.GenerationSoftware,KiCad,Pcbnew,6.0.2-378541a8eb~116~ubuntu20.04.1*
G04 #@! TF.CreationDate,2022-02-22T23:01:21+01:00*
G04 #@! TF.ProjectId,display,64697370-6c61-4792-9e6b-696361645f70,1*
G04 #@! TF.SameCoordinates,Original*
G04 #@! TF.FileFunction,Copper,L1,Top*
G04 #@! TF.FilePolarity,Positive*
%FSLAX46Y46*%
G04 Gerber Fmt 4.6, Leading zero omitted, Abs format (unit mm)*
G04 Created by KiCad (PCBNEW 6.0.2-378541a8eb~116~ubuntu20.04.1) date 2022-02-22 23:01:21*
%MOMM*%
%LPD*%
G01*
G04 APERTURE LIST*
G04 Aperture macros list*
%AMRoundRect*
0 Rectangle with rounded corners*
0 $1 Rounding radius*
0 $2 $3 $4 $5 $6 $7 $8 $9 X,Y pos of 4 corners*
0 Add a 4 corners polygon primitive as box body*
4,1,4,$2,$3,$4,$5,$6,$7,$8,$9,$2,$3,0*
0 Add four circle primitives for the rounded corners*
1,1,$1+$1,$2,$3*
1,1,$1+$1,$4,$5*
1,1,$1+$1,$6,$7*
1,1,$1+$1,$8,$9*
0 Add four rect primitives between the rounded corners*
20,1,$1+$1,$2,$3,$4,$5,0*
20,1,$1+$1,$4,$5,$6,$7,0*
20,1,$1+$1,$6,$7,$8,$9,0*
20,1,$1+$1,$8,$9,$2,$3,0*%
G04 Aperture macros list end*
G04 #@! TA.AperFunction,SMDPad,CuDef*
%ADD10RoundRect,0.237500X0.237500X-0.250000X0.237500X0.250000X-0.237500X0.250000X-0.237500X-0.250000X0*%
G04 #@! TD*
G04 #@! TA.AperFunction,SMDPad,CuDef*
%ADD11RoundRect,0.190000X0.685000X-0.285000X0.685000X0.285000X-0.685000X0.285000X-0.685000X-0.285000X0*%
G04 #@! TD*
G04 #@! TA.AperFunction,ComponentPad*
%ADD12C,6.000000*%
G04 #@! TD*
G04 #@! TA.AperFunction,Conductor*
%ADD13C,0.350000*%
G04 #@! TD*
G04 APERTURE END LIST*
D10*
X142500000Y-70912500D03*
X142500000Y-69087500D03*
X127500000Y-70912500D03*
X127500000Y-69087500D03*
X112500000Y-78412500D03*
X112500000Y-76587500D03*
D11*
X135000000Y-86550000D03*
X135000000Y-83450000D03*
X135000000Y-71550000D03*
X135000000Y-68450000D03*
D10*
X142500000Y-85912500D03*
X142500000Y-84087500D03*
X142500000Y-78412500D03*
X142500000Y-76587500D03*
X112500000Y-70912500D03*
X112500000Y-69087500D03*
X112500000Y-85912500D03*
X112500000Y-84087500D03*
D11*
X120000000Y-79050000D03*
X120000000Y-75950000D03*
X127500000Y-79050000D03*
X127500000Y-75950000D03*
X120000000Y-86550000D03*
X120000000Y-83450000D03*
X120000000Y-71550000D03*
X120000000Y-68450000D03*
X135000000Y-79050000D03*
X135000000Y-75950000D03*
D12*
X145500000Y-59500000D03*
X109500000Y-59500000D03*
X145500000Y-95500000D03*
X109500000Y-95500000D03*
X127500000Y-95500000D03*
D13*
X142500000Y-69087500D02*
X141862500Y-68450000D01*
X141862500Y-68450000D02*
X135000000Y-68450000D01*
X141862500Y-75950000D02*
X135000000Y-75950000D01*
X142500000Y-76587500D02*
X141862500Y-75950000D01*
X142500000Y-84087500D02*
X141862500Y-83450000D01*
X141862500Y-83450000D02*
X135000000Y-83450000D01*
X127500000Y-70912500D02*
X127500000Y-75950000D01*
X113137500Y-68450000D02*
X120000000Y-68450000D01*
X112500000Y-69087500D02*
X113137500Y-68450000D01*
X112500000Y-76587500D02*
X113137500Y-75950000D01*
X113137500Y-75950000D02*
X120000000Y-75950000D01*
X113137500Y-83450000D02*
X120000000Y-83450000D01*
X112500000Y-84087500D02*
X113137500Y-83450000D01*
X113284000Y-80264000D02*
X112500000Y-79480000D01*
X131000000Y-65000000D02*
X131000000Y-79500000D01*
X112500000Y-79480000D02*
X112500000Y-78412500D01*
X131000000Y-79500000D02*
X130236000Y-80264000D01*
X131000000Y-79500000D02*
X131764000Y-80264000D01*
X142500000Y-79496000D02*
X142500000Y-78412500D01*
X136500000Y-59500000D02*
X131000000Y-65000000D01*
X131764000Y-80264000D02*
X141732000Y-80264000D01*
X141732000Y-80264000D02*
X142500000Y-79496000D01*
X145500000Y-59500000D02*
X136500000Y-59500000D01*
X130236000Y-80264000D02*
X113284000Y-80264000D01*
X127500000Y-65000000D02*
X127500000Y-69087500D01*
X109500000Y-59500000D02*
X122000000Y-59500000D01*
X122000000Y-59500000D02*
X127500000Y-65000000D01*
X146812000Y-94188000D02*
X146812000Y-73660000D01*
X144064500Y-70912500D02*
X142500000Y-70912500D01*
X145500000Y-95500000D02*
X139154000Y-89154000D01*
X146812000Y-73660000D02*
X144064500Y-70912500D01*
X115741500Y-89154000D02*
X112500000Y-85912500D01*
X139154000Y-89154000D02*
X115741500Y-89154000D01*
X143764000Y-81788000D02*
X143764000Y-85344000D01*
X111205500Y-70912500D02*
X112500000Y-70912500D01*
X143195500Y-85912500D02*
X142500000Y-85912500D01*
X109500000Y-82524000D02*
X110998000Y-81026000D01*
X110998000Y-81026000D02*
X143002000Y-81026000D01*
X143002000Y-81026000D02*
X143764000Y-81788000D01*
X109500000Y-95500000D02*
X109500000Y-72618000D01*
X109500000Y-72618000D02*
X111205500Y-70912500D01*
X143764000Y-85344000D02*
X143195500Y-85912500D01*
G04 #@! TA.AperFunction,Conductor*
G36*
X149434121Y-55528002D02*
G01*
X149480614Y-55581658D01*
X149492000Y-55634000D01*
X149492000Y-99366000D01*
X149471998Y-99434121D01*
X149418342Y-99480614D01*
X149366000Y-99492000D01*
X105634000Y-99492000D01*
X105565879Y-99471998D01*
X105519386Y-99418342D01*
X105508000Y-99366000D01*
X105508000Y-95500000D01*
X105986685Y-95500000D01*
X106005931Y-95867241D01*
X106063459Y-96230459D01*
X106158639Y-96585674D01*
X106290427Y-96928994D01*
X106457380Y-97256657D01*
X106657668Y-97565075D01*
X106889098Y-97850867D01*
X107149133Y-98110902D01*
X107434925Y-98342332D01*
X107743342Y-98542620D01*
X107746276Y-98544115D01*
X107746283Y-98544119D01*
X108067173Y-98707620D01*
X108071006Y-98709573D01*
X108414326Y-98841361D01*
X108769541Y-98936541D01*
X108962558Y-98967112D01*
X109129511Y-98993555D01*
X109129519Y-98993556D01*
X109132759Y-98994069D01*
X109500000Y-99013315D01*
X109867241Y-98994069D01*
X109870481Y-98993556D01*
X109870489Y-98993555D01*
X110037442Y-98967112D01*
X110230459Y-98936541D01*
X110585674Y-98841361D01*
X110928994Y-98709573D01*
X110932827Y-98707620D01*
X111253717Y-98544119D01*
X111253724Y-98544115D01*
X111256658Y-98542620D01*
X111565075Y-98342332D01*
X111796181Y-98155186D01*
X125209960Y-98155186D01*
X125217418Y-98165554D01*
X125432662Y-98339854D01*
X125437984Y-98343721D01*
X125740823Y-98540387D01*
X125746532Y-98543683D01*
X126068275Y-98707620D01*
X126074286Y-98710296D01*
X126411395Y-98839700D01*
X126417672Y-98841740D01*
X126766463Y-98935198D01*
X126772901Y-98936567D01*
X127129560Y-98993055D01*
X127136104Y-98993743D01*
X127496699Y-99012641D01*
X127503301Y-99012641D01*
X127863896Y-98993743D01*
X127870440Y-98993055D01*
X128227099Y-98936567D01*
X128233537Y-98935198D01*
X128582328Y-98841740D01*
X128588605Y-98839700D01*
X128925714Y-98710296D01*
X128931725Y-98707620D01*
X129253468Y-98543683D01*
X129259177Y-98540387D01*
X129562016Y-98343721D01*
X129567338Y-98339854D01*
X129781634Y-98166322D01*
X129790100Y-98154067D01*
X129783766Y-98142976D01*
X127512812Y-95872022D01*
X127498868Y-95864408D01*
X127497035Y-95864539D01*
X127490420Y-95868790D01*
X125217100Y-98142110D01*
X125209960Y-98155186D01*
X111796181Y-98155186D01*
X111850867Y-98110902D01*
X112110902Y-97850867D01*
X112342332Y-97565075D01*
X112542620Y-97256657D01*
X112709573Y-96928994D01*
X112841361Y-96585674D01*
X112936541Y-96230459D01*
X112994069Y-95867241D01*
X113013142Y-95503301D01*
X123987359Y-95503301D01*
X124006257Y-95863896D01*
X124006945Y-95870440D01*
X124063433Y-96227099D01*
X124064802Y-96233537D01*
X124158260Y-96582328D01*
X124160300Y-96588605D01*
X124289704Y-96925714D01*
X124292380Y-96931725D01*
X124456317Y-97253468D01*
X124459613Y-97259177D01*
X124656279Y-97562016D01*
X124660146Y-97567338D01*
X124833678Y-97781634D01*
X124845933Y-97790100D01*
X124857024Y-97783766D01*
X127127978Y-95512812D01*
X127134356Y-95501132D01*
X127864408Y-95501132D01*
X127864539Y-95502965D01*
X127868790Y-95509580D01*
X130142110Y-97782900D01*
X130155186Y-97790040D01*
X130165554Y-97782582D01*
X130339854Y-97567338D01*
X130343721Y-97562016D01*
X130540387Y-97259177D01*
X130543683Y-97253468D01*
X130707620Y-96931725D01*
X130710296Y-96925714D01*
X130839700Y-96588605D01*
X130841740Y-96582328D01*
X130935198Y-96233537D01*
X130936567Y-96227099D01*
X130993055Y-95870440D01*
X130993743Y-95863896D01*
X131012641Y-95503301D01*
X131012641Y-95496699D01*
X130993743Y-95136104D01*
X130993055Y-95129560D01*
X130936567Y-94772901D01*
X130935198Y-94766463D01*
X130841740Y-94417672D01*
X130839700Y-94411395D01*
X130710296Y-94074286D01*
X130707620Y-94068275D01*
X130543683Y-93746532D01*
X130540387Y-93740823D01*
X130343721Y-93437984D01*
X130339854Y-93432662D01*
X130166322Y-93218366D01*
X130154067Y-93209900D01*
X130142976Y-93216234D01*
X127872022Y-95487188D01*
X127864408Y-95501132D01*
X127134356Y-95501132D01*
X127135592Y-95498868D01*
X127135461Y-95497035D01*
X127131210Y-95490420D01*
X124857890Y-93217100D01*
X124844814Y-93209960D01*
X124834446Y-93217418D01*
X124660146Y-93432662D01*
X124656279Y-93437984D01*
X124459613Y-93740823D01*
X124456317Y-93746532D01*
X124292380Y-94068275D01*
X124289704Y-94074286D01*
X124160300Y-94411395D01*
X124158260Y-94417672D01*
X124064802Y-94766463D01*
X124063433Y-94772901D01*
X124006945Y-95129560D01*
X124006257Y-95136104D01*
X123987359Y-95496699D01*
X123987359Y-95503301D01*
X113013142Y-95503301D01*
X113013315Y-95500000D01*
X112994069Y-95132759D01*
X112936541Y-94769541D01*
X112841361Y-94414326D01*
X112709573Y-94071006D01*
X112542620Y-93743343D01*
X112342332Y-93434925D01*
X112110902Y-93149133D01*
X111850867Y-92889098D01*
X111797563Y-92845933D01*
X125209900Y-92845933D01*
X125216234Y-92857024D01*
X127487188Y-95127978D01*
X127501132Y-95135592D01*
X127502965Y-95135461D01*
X127509580Y-95131210D01*
X129782900Y-92857890D01*
X129790040Y-92844814D01*
X129782582Y-92834446D01*
X129567338Y-92660146D01*
X129562016Y-92656279D01*
X129259177Y-92459613D01*
X129253468Y-92456317D01*
X128931725Y-92292380D01*
X128925714Y-92289704D01*
X128588605Y-92160300D01*
X128582328Y-92158260D01*
X128233537Y-92064802D01*
X128227099Y-92063433D01*
X127870440Y-92006945D01*
X127863896Y-92006257D01*
X127503301Y-91987359D01*
X127496699Y-91987359D01*
X127136104Y-92006257D01*
X127129560Y-92006945D01*
X126772901Y-92063433D01*
X126766463Y-92064802D01*
X126417672Y-92158260D01*
X126411395Y-92160300D01*
X126074286Y-92289704D01*
X126068275Y-92292380D01*
X125746532Y-92456317D01*
X125740823Y-92459613D01*
X125437984Y-92656279D01*
X125432662Y-92660146D01*
X125218366Y-92833678D01*
X125209900Y-92845933D01*
X111797563Y-92845933D01*
X111565075Y-92657668D01*
X111364700Y-92527543D01*
X111259427Y-92459178D01*
X111259424Y-92459176D01*
X111256658Y-92457380D01*
X111253724Y-92455885D01*
X111253717Y-92455881D01*
X110931934Y-92291925D01*
X110928994Y-92290427D01*
X110585674Y-92158639D01*
X110276889Y-92075900D01*
X110216266Y-92038948D01*
X110185245Y-91975087D01*
X110183500Y-91954193D01*
X110183500Y-86212072D01*
X111516500Y-86212072D01*
X111516837Y-86215318D01*
X111516837Y-86215322D01*
X111526362Y-86307118D01*
X111527293Y-86316093D01*
X111529474Y-86322629D01*
X111529474Y-86322631D01*
X111553079Y-86393383D01*
X111582346Y-86481107D01*
X111673884Y-86629031D01*
X111679066Y-86634204D01*
X111791816Y-86746758D01*
X111791821Y-86746762D01*
X111796997Y-86751929D01*
X111945080Y-86843209D01*
X112110191Y-86897974D01*
X112117027Y-86898674D01*
X112117030Y-86898675D01*
X112168526Y-86903951D01*
X112212928Y-86908500D01*
X112477195Y-86908500D01*
X112545316Y-86928502D01*
X112566290Y-86945405D01*
X115238344Y-89617459D01*
X115244198Y-89623724D01*
X115280790Y-89665670D01*
X115331155Y-89701066D01*
X115336420Y-89704978D01*
X115384828Y-89742935D01*
X115391752Y-89746061D01*
X115396061Y-89748671D01*
X115405476Y-89754042D01*
X115409924Y-89756427D01*
X115416139Y-89760795D01*
X115423216Y-89763554D01*
X115473452Y-89783140D01*
X115479534Y-89785697D01*
X115503868Y-89796684D01*
X115535604Y-89811014D01*
X115543076Y-89812399D01*
X115547927Y-89813919D01*
X115558265Y-89816864D01*
X115563196Y-89818130D01*
X115570272Y-89820889D01*
X115577801Y-89821880D01*
X115577804Y-89821881D01*
X115631266Y-89828919D01*
X115637781Y-89829951D01*
X115679641Y-89837709D01*
X115698267Y-89841161D01*
X115705847Y-89840724D01*
X115705848Y-89840724D01*
X115758142Y-89837709D01*
X115765394Y-89837500D01*
X138818695Y-89837500D01*
X138886816Y-89857502D01*
X138907790Y-89874405D01*
X142510966Y-93477580D01*
X142544992Y-93539892D01*
X142539927Y-93610707D01*
X142527544Y-93635299D01*
X142457380Y-93743343D01*
X142290427Y-94071006D01*
X142158639Y-94414326D01*
X142063459Y-94769541D01*
X142005931Y-95132759D01*
X141986685Y-95500000D01*
X142005931Y-95867241D01*
X142063459Y-96230459D01*
X142158639Y-96585674D01*
X142290427Y-96928994D01*
X142457380Y-97256657D01*
X142657668Y-97565075D01*
X142889098Y-97850867D01*
X143149133Y-98110902D01*
X143434925Y-98342332D01*
X143743342Y-98542620D01*
X143746276Y-98544115D01*
X143746283Y-98544119D01*
X144067173Y-98707620D01*
X144071006Y-98709573D01*
X144414326Y-98841361D01*
X144769541Y-98936541D01*
X144962558Y-98967112D01*
X145129511Y-98993555D01*
X145129519Y-98993556D01*
X145132759Y-98994069D01*
X145500000Y-99013315D01*
X145867241Y-98994069D01*
X145870481Y-98993556D01*
X145870489Y-98993555D01*
X146037442Y-98967112D01*
X146230459Y-98936541D01*
X146585674Y-98841361D01*
X146928994Y-98709573D01*
X146932827Y-98707620D01*
X147253717Y-98544119D01*
X147253724Y-98544115D01*
X147256658Y-98542620D01*
X147565075Y-98342332D01*
X147850867Y-98110902D01*
X148110902Y-97850867D01*
X148342332Y-97565075D01*
X148542620Y-97256657D01*
X148709573Y-96928994D01*
X148841361Y-96585674D01*
X148936541Y-96230459D01*
X148994069Y-95867241D01*
X149013315Y-95500000D01*
X148994069Y-95132759D01*
X148936541Y-94769541D01*
X148841361Y-94414326D01*
X148709573Y-94071006D01*
X148542620Y-93743343D01*
X148342332Y-93434925D01*
X148110902Y-93149133D01*
X147850867Y-92889098D01*
X147565075Y-92657668D01*
X147552876Y-92649746D01*
X147506639Y-92595870D01*
X147495500Y-92544073D01*
X147495500Y-73688056D01*
X147495792Y-73679486D01*
X147495863Y-73678443D01*
X147499577Y-73623966D01*
X147488997Y-73563342D01*
X147488034Y-73556819D01*
X147481558Y-73503308D01*
X147481558Y-73503307D01*
X147480645Y-73495765D01*
X147477959Y-73488655D01*
X147476754Y-73483752D01*
X147473886Y-73473266D01*
X147472439Y-73468474D01*
X147471134Y-73460996D01*
X147468082Y-73454043D01*
X147446405Y-73404659D01*
X147443914Y-73398554D01*
X147424855Y-73348118D01*
X147424853Y-73348115D01*
X147422169Y-73341011D01*
X147417869Y-73334754D01*
X147415533Y-73330286D01*
X147410275Y-73320840D01*
X147407693Y-73316474D01*
X147404638Y-73309515D01*
X147367177Y-73260696D01*
X147363314Y-73255377D01*
X147332769Y-73210935D01*
X147328466Y-73204674D01*
X147283676Y-73164767D01*
X147278402Y-73159787D01*
X144567656Y-70449041D01*
X144561802Y-70442776D01*
X144530204Y-70406555D01*
X144525210Y-70400830D01*
X144474845Y-70365434D01*
X144469577Y-70361520D01*
X144464208Y-70357310D01*
X144421172Y-70323565D01*
X144414248Y-70320439D01*
X144409939Y-70317829D01*
X144400524Y-70312458D01*
X144396076Y-70310073D01*
X144389861Y-70305705D01*
X144332539Y-70283356D01*
X144326471Y-70280806D01*
X144270395Y-70255486D01*
X144262918Y-70254100D01*
X144258098Y-70252590D01*
X144247665Y-70249618D01*
X144242804Y-70248370D01*
X144235728Y-70245611D01*
X144174738Y-70237582D01*
X144168222Y-70236550D01*
X144115200Y-70226723D01*
X144107733Y-70225339D01*
X144100153Y-70225776D01*
X144100152Y-70225776D01*
X144047858Y-70228791D01*
X144040606Y-70229000D01*
X143411331Y-70229000D01*
X143343210Y-70208998D01*
X143322313Y-70192173D01*
X143321952Y-70191812D01*
X143287047Y-70156968D01*
X143219214Y-70089253D01*
X143185135Y-70026970D01*
X143190138Y-69956150D01*
X143219059Y-69911063D01*
X143321754Y-69808188D01*
X143321758Y-69808183D01*
X143326929Y-69803003D01*
X143395754Y-69691349D01*
X143414369Y-69661150D01*
X143414370Y-69661148D01*
X143418209Y-69654920D01*
X143472974Y-69489809D01*
X143475679Y-69463414D01*
X143483172Y-69390271D01*
X143483500Y-69387072D01*
X143483500Y-68787928D01*
X143472707Y-68683907D01*
X143417654Y-68518893D01*
X143326116Y-68370969D01*
X143220482Y-68265519D01*
X143208184Y-68253242D01*
X143208179Y-68253238D01*
X143203003Y-68248071D01*
X143054920Y-68156791D01*
X142889809Y-68102026D01*
X142882973Y-68101326D01*
X142882970Y-68101325D01*
X142831474Y-68096049D01*
X142787072Y-68091500D01*
X142522805Y-68091500D01*
X142454684Y-68071498D01*
X142433710Y-68054595D01*
X142365656Y-67986541D01*
X142359802Y-67980276D01*
X142328204Y-67944055D01*
X142323210Y-67938330D01*
X142272845Y-67902934D01*
X142267577Y-67899020D01*
X142246757Y-67882695D01*
X142219172Y-67861065D01*
X142212248Y-67857939D01*
X142207939Y-67855329D01*
X142198524Y-67849958D01*
X142194076Y-67847573D01*
X142187861Y-67843205D01*
X142130539Y-67820856D01*
X142124471Y-67818306D01*
X142068395Y-67792986D01*
X142060918Y-67791600D01*
X142056098Y-67790090D01*
X142045665Y-67787118D01*
X142040804Y-67785870D01*
X142033728Y-67783111D01*
X141972738Y-67775082D01*
X141966222Y-67774050D01*
X141913200Y-67764223D01*
X141905733Y-67762839D01*
X141898153Y-67763276D01*
X141898152Y-67763276D01*
X141845858Y-67766291D01*
X141838606Y-67766500D01*
X136326566Y-67766500D01*
X136258445Y-67746498D01*
X136237471Y-67729595D01*
X136119165Y-67611289D01*
X135974554Y-67523709D01*
X135967307Y-67521438D01*
X135967305Y-67521437D01*
X135901388Y-67500780D01*
X135813226Y-67473152D01*
X135740831Y-67466500D01*
X135737933Y-67466500D01*
X134998078Y-67466501D01*
X134259170Y-67466501D01*
X134256311Y-67466764D01*
X134256303Y-67466764D01*
X134220802Y-67470026D01*
X134186774Y-67473152D01*
X134180395Y-67475151D01*
X134032695Y-67521437D01*
X134032693Y-67521438D01*
X134025446Y-67523709D01*
X133880835Y-67611289D01*
X133761289Y-67730835D01*
X133673709Y-67875446D01*
X133671438Y-67882693D01*
X133671437Y-67882695D01*
X133667010Y-67896822D01*
X133623152Y-68036774D01*
X133616500Y-68109169D01*
X133616501Y-68790830D01*
X133616764Y-68793689D01*
X133616764Y-68793697D01*
X133620026Y-68829198D01*
X133623152Y-68863226D01*
X133629155Y-68882382D01*
X133630440Y-68953365D01*
X133595892Y-69011230D01*
X133545144Y-69059641D01*
X133545139Y-69059646D01*
X133541282Y-69063326D01*
X133398598Y-69255100D01*
X133396182Y-69259851D01*
X133396180Y-69259855D01*
X133341757Y-69366898D01*
X133290267Y-69468172D01*
X133281120Y-69497631D01*
X133220968Y-69691349D01*
X133220967Y-69691355D01*
X133219384Y-69696452D01*
X133187977Y-69933411D01*
X133196945Y-70172274D01*
X133210558Y-70237151D01*
X133243895Y-70396034D01*
X133246030Y-70406211D01*
X133333829Y-70628533D01*
X133457832Y-70832883D01*
X133461329Y-70836913D01*
X133603535Y-71000791D01*
X133633074Y-71065350D01*
X133628604Y-71121049D01*
X133625647Y-71130486D01*
X133623035Y-71143528D01*
X133617266Y-71206312D01*
X133617000Y-71212101D01*
X133617000Y-71277885D01*
X133621475Y-71293124D01*
X133622865Y-71294329D01*
X133630548Y-71296000D01*
X134020094Y-71296000D01*
X134063085Y-71303561D01*
X134072885Y-71307118D01*
X134231753Y-71364784D01*
X134237002Y-71365733D01*
X134237005Y-71365734D01*
X134462885Y-71406580D01*
X134462893Y-71406581D01*
X134466969Y-71407318D01*
X134485359Y-71408185D01*
X134490544Y-71408430D01*
X134490551Y-71408430D01*
X134492032Y-71408500D01*
X135460012Y-71408500D01*
X135638175Y-71393383D01*
X135643339Y-71392043D01*
X135643343Y-71392042D01*
X135864375Y-71334673D01*
X135864380Y-71334671D01*
X135869540Y-71333332D01*
X135907809Y-71316093D01*
X135927733Y-71307118D01*
X135979484Y-71296000D01*
X136364884Y-71296000D01*
X136380123Y-71291525D01*
X136381328Y-71290135D01*
X136382999Y-71282452D01*
X136382999Y-71212087D01*
X136382736Y-71206337D01*
X136376964Y-71143519D01*
X136374354Y-71130486D01*
X136370442Y-71118003D01*
X136369158Y-71047018D01*
X136403703Y-70989156D01*
X136458718Y-70936674D01*
X136601402Y-70744900D01*
X136709733Y-70531828D01*
X136750409Y-70400830D01*
X136779032Y-70308651D01*
X136779033Y-70308645D01*
X136780616Y-70303548D01*
X136812023Y-70066589D01*
X136803055Y-69827726D01*
X136753970Y-69593789D01*
X136666171Y-69371467D01*
X136663401Y-69366903D01*
X136663399Y-69366898D01*
X136637893Y-69324865D01*
X136619654Y-69256251D01*
X136641406Y-69188669D01*
X136696242Y-69143575D01*
X136745612Y-69133500D01*
X141390500Y-69133500D01*
X141458621Y-69153502D01*
X141505114Y-69207158D01*
X141516500Y-69259500D01*
X141516500Y-69387072D01*
X141516837Y-69390318D01*
X141516837Y-69390322D01*
X141524915Y-69468172D01*
X141527293Y-69491093D01*
X141582346Y-69656107D01*
X141673884Y-69804031D01*
X141679066Y-69809204D01*
X141780786Y-69910747D01*
X141814865Y-69973030D01*
X141809862Y-70043850D01*
X141780941Y-70088937D01*
X141678246Y-70191812D01*
X141678242Y-70191817D01*
X141673071Y-70196997D01*
X141669231Y-70203227D01*
X141669230Y-70203228D01*
X141586364Y-70337662D01*
X141581791Y-70345080D01*
X141527026Y-70510191D01*
X141526326Y-70517027D01*
X141526325Y-70517030D01*
X141521049Y-70568526D01*
X141516500Y-70612928D01*
X141516500Y-71212072D01*
X141516837Y-71215318D01*
X141516837Y-71215322D01*
X141526362Y-71307118D01*
X141527293Y-71316093D01*
X141529474Y-71322629D01*
X141529474Y-71322631D01*
X141553079Y-71393383D01*
X141582346Y-71481107D01*
X141673884Y-71629031D01*
X141679066Y-71634204D01*
X141791816Y-71746758D01*
X141791821Y-71746762D01*
X141796997Y-71751929D01*
X141945080Y-71843209D01*
X142110191Y-71897974D01*
X142117027Y-71898674D01*
X142117030Y-71898675D01*
X142168526Y-71903951D01*
X142212928Y-71908500D01*
X142787072Y-71908500D01*
X142790318Y-71908163D01*
X142790322Y-71908163D01*
X142884235Y-71898419D01*
X142884239Y-71898418D01*
X142891093Y-71897707D01*
X142897629Y-71895526D01*
X142897631Y-71895526D01*
X143030395Y-71851232D01*
X143056107Y-71842654D01*
X143204031Y-71751116D01*
X143209204Y-71745934D01*
X143321959Y-71632982D01*
X143384241Y-71598903D01*
X143411132Y-71596000D01*
X143729195Y-71596000D01*
X143797316Y-71616002D01*
X143818290Y-71632905D01*
X146091595Y-73906210D01*
X146125621Y-73968522D01*
X146128500Y-73995305D01*
X146128500Y-91899783D01*
X146108498Y-91967904D01*
X146054842Y-92014397D01*
X145982790Y-92024232D01*
X145953065Y-92019524D01*
X145870489Y-92006445D01*
X145870481Y-92006444D01*
X145867241Y-92005931D01*
X145500000Y-91986685D01*
X145132759Y-92005931D01*
X145129519Y-92006444D01*
X145129511Y-92006445D01*
X144962558Y-92032888D01*
X144769541Y-92063459D01*
X144414326Y-92158639D01*
X144071006Y-92290427D01*
X144068066Y-92291925D01*
X143746284Y-92455881D01*
X143746277Y-92455885D01*
X143743343Y-92457380D01*
X143740575Y-92459177D01*
X143740569Y-92459181D01*
X143635301Y-92527543D01*
X143567276Y-92547870D01*
X143499061Y-92528192D01*
X143477581Y-92510966D01*
X139657156Y-88690541D01*
X139651302Y-88684276D01*
X139619704Y-88648055D01*
X139614710Y-88642330D01*
X139564345Y-88606934D01*
X139559077Y-88603020D01*
X139516649Y-88569752D01*
X139510672Y-88565065D01*
X139503748Y-88561939D01*
X139499439Y-88559329D01*
X139490024Y-88553958D01*
X139485576Y-88551573D01*
X139479361Y-88547205D01*
X139422039Y-88524856D01*
X139415971Y-88522306D01*
X139359895Y-88496986D01*
X139352418Y-88495600D01*
X139347598Y-88494090D01*
X139337165Y-88491118D01*
X139332304Y-88489870D01*
X139325228Y-88487111D01*
X139264238Y-88479082D01*
X139257722Y-88478050D01*
X139204700Y-88468223D01*
X139197233Y-88466839D01*
X139189653Y-88467276D01*
X139189652Y-88467276D01*
X139137358Y-88470291D01*
X139130106Y-88470500D01*
X116076805Y-88470500D01*
X116008684Y-88450498D01*
X115987710Y-88433595D01*
X114442028Y-86887913D01*
X118617001Y-86887913D01*
X118617264Y-86893663D01*
X118623036Y-86956481D01*
X118625646Y-86969514D01*
X118671896Y-87117098D01*
X118678103Y-87130844D01*
X118757748Y-87262354D01*
X118767061Y-87274231D01*
X118875769Y-87382939D01*
X118887646Y-87392252D01*
X119019156Y-87471897D01*
X119032902Y-87478104D01*
X119180481Y-87524352D01*
X119193528Y-87526965D01*
X119256312Y-87532734D01*
X119262101Y-87533000D01*
X119727885Y-87533000D01*
X119743124Y-87528525D01*
X119744329Y-87527135D01*
X119746000Y-87519452D01*
X119746000Y-87514884D01*
X120254000Y-87514884D01*
X120258475Y-87530123D01*
X120259865Y-87531328D01*
X120267548Y-87532999D01*
X120737913Y-87532999D01*
X120743663Y-87532736D01*
X120806481Y-87526964D01*
X120819514Y-87524354D01*
X120967098Y-87478104D01*
X120980844Y-87471897D01*
X121112354Y-87392252D01*
X121124231Y-87382939D01*
X121232939Y-87274231D01*
X121242252Y-87262354D01*
X121321897Y-87130844D01*
X121328104Y-87117098D01*
X121374352Y-86969519D01*
X121376965Y-86956472D01*
X121382734Y-86893688D01*
X121382999Y-86887913D01*
X133617001Y-86887913D01*
X133617264Y-86893663D01*
X133623036Y-86956481D01*
X133625646Y-86969514D01*
X133671896Y-87117098D01*
X133678103Y-87130844D01*
X133757748Y-87262354D01*
X133767061Y-87274231D01*
X133875769Y-87382939D01*
X133887646Y-87392252D01*
X134019156Y-87471897D01*
X134032902Y-87478104D01*
X134180481Y-87524352D01*
X134193528Y-87526965D01*
X134256312Y-87532734D01*
X134262101Y-87533000D01*
X134727885Y-87533000D01*
X134743124Y-87528525D01*
X134744329Y-87527135D01*
X134746000Y-87519452D01*
X134746000Y-87514884D01*
X135254000Y-87514884D01*
X135258475Y-87530123D01*
X135259865Y-87531328D01*
X135267548Y-87532999D01*
X135737913Y-87532999D01*
X135743663Y-87532736D01*
X135806481Y-87526964D01*
X135819514Y-87524354D01*
X135967098Y-87478104D01*
X135980844Y-87471897D01*
X136112354Y-87392252D01*
X136124231Y-87382939D01*
X136232939Y-87274231D01*
X136242252Y-87262354D01*
X136321897Y-87130844D01*
X136328104Y-87117098D01*
X136374352Y-86969519D01*
X136376965Y-86956472D01*
X136382734Y-86893688D01*
X136383000Y-86887899D01*
X136383000Y-86822115D01*
X136378525Y-86806876D01*
X136377135Y-86805671D01*
X136369452Y-86804000D01*
X135272115Y-86804000D01*
X135256876Y-86808475D01*
X135255671Y-86809865D01*
X135254000Y-86817548D01*
X135254000Y-87514884D01*
X134746000Y-87514884D01*
X134746000Y-86822115D01*
X134741525Y-86806876D01*
X134740135Y-86805671D01*
X134732452Y-86804000D01*
X133635116Y-86804000D01*
X133619877Y-86808475D01*
X133618672Y-86809865D01*
X133617001Y-86817548D01*
X133617001Y-86887913D01*
X121382999Y-86887913D01*
X121383000Y-86887899D01*
X121383000Y-86822115D01*
X121378525Y-86806876D01*
X121377135Y-86805671D01*
X121369452Y-86804000D01*
X120272115Y-86804000D01*
X120256876Y-86808475D01*
X120255671Y-86809865D01*
X120254000Y-86817548D01*
X120254000Y-87514884D01*
X119746000Y-87514884D01*
X119746000Y-86822115D01*
X119741525Y-86806876D01*
X119740135Y-86805671D01*
X119732452Y-86804000D01*
X118635116Y-86804000D01*
X118619877Y-86808475D01*
X118618672Y-86809865D01*
X118617001Y-86817548D01*
X118617001Y-86887913D01*
X114442028Y-86887913D01*
X113520405Y-85966290D01*
X113486379Y-85903978D01*
X113483500Y-85877195D01*
X113483500Y-85612928D01*
X113476960Y-85549896D01*
X113473419Y-85515765D01*
X113473418Y-85515761D01*
X113472707Y-85508907D01*
X113453373Y-85450954D01*
X113419972Y-85350841D01*
X113417654Y-85343893D01*
X113326116Y-85195969D01*
X113297039Y-85166943D01*
X113219214Y-85089253D01*
X113185135Y-85026970D01*
X113190138Y-84956150D01*
X113219059Y-84911063D01*
X113321754Y-84808188D01*
X113321758Y-84808183D01*
X113326929Y-84803003D01*
X113395754Y-84691349D01*
X113414369Y-84661150D01*
X113414370Y-84661148D01*
X113418209Y-84654920D01*
X113472974Y-84489809D01*
X113475679Y-84463414D01*
X113483172Y-84390271D01*
X113483500Y-84387072D01*
X113483500Y-84259500D01*
X113503502Y-84191379D01*
X113557158Y-84144886D01*
X113609500Y-84133500D01*
X118255010Y-84133500D01*
X118323131Y-84153502D01*
X118369624Y-84207158D01*
X118379728Y-84277432D01*
X118367327Y-84316604D01*
X118292688Y-84463409D01*
X118292686Y-84463414D01*
X118290267Y-84468172D01*
X118281120Y-84497631D01*
X118220968Y-84691349D01*
X118220967Y-84691355D01*
X118219384Y-84696452D01*
X118187977Y-84933411D01*
X118196945Y-85172274D01*
X118246030Y-85406211D01*
X118333829Y-85628533D01*
X118457832Y-85832883D01*
X118461329Y-85836913D01*
X118603535Y-86000791D01*
X118633074Y-86065350D01*
X118628604Y-86121049D01*
X118625647Y-86130486D01*
X118623035Y-86143528D01*
X118617266Y-86206312D01*
X118617000Y-86212101D01*
X118617000Y-86277885D01*
X118621475Y-86293124D01*
X118622865Y-86294329D01*
X118630548Y-86296000D01*
X119020094Y-86296000D01*
X119063085Y-86303561D01*
X119072885Y-86307118D01*
X119231753Y-86364784D01*
X119237002Y-86365733D01*
X119237005Y-86365734D01*
X119462885Y-86406580D01*
X119462893Y-86406581D01*
X119466969Y-86407318D01*
X119485359Y-86408185D01*
X119490544Y-86408430D01*
X119490551Y-86408430D01*
X119492032Y-86408500D01*
X120460012Y-86408500D01*
X120638175Y-86393383D01*
X120643339Y-86392043D01*
X120643343Y-86392042D01*
X120864375Y-86334673D01*
X120864380Y-86334671D01*
X120869540Y-86333332D01*
X120927733Y-86307118D01*
X120979484Y-86296000D01*
X121364884Y-86296000D01*
X121380123Y-86291525D01*
X121381328Y-86290135D01*
X121382999Y-86282452D01*
X121382999Y-86212087D01*
X121382736Y-86206337D01*
X121376964Y-86143519D01*
X121374354Y-86130486D01*
X121370442Y-86118003D01*
X121369158Y-86047018D01*
X121403703Y-85989156D01*
X121458718Y-85936674D01*
X121601402Y-85744900D01*
X121620852Y-85706646D01*
X121707314Y-85536586D01*
X121707314Y-85536585D01*
X121709733Y-85531828D01*
X121754631Y-85387233D01*
X121779032Y-85308651D01*
X121779033Y-85308645D01*
X121780616Y-85303548D01*
X121812023Y-85066589D01*
X121803055Y-84827726D01*
X121753970Y-84593789D01*
X121666171Y-84371467D01*
X121542168Y-84167117D01*
X121452103Y-84063326D01*
X121396850Y-83999652D01*
X121367311Y-83935092D01*
X121371781Y-83879396D01*
X121374847Y-83869611D01*
X121376848Y-83863226D01*
X121383500Y-83790831D01*
X121383499Y-83109170D01*
X121383234Y-83106278D01*
X121377459Y-83043428D01*
X121376848Y-83036774D01*
X121332990Y-82896822D01*
X121328563Y-82882695D01*
X121328562Y-82882693D01*
X121326291Y-82875446D01*
X121238711Y-82730835D01*
X121119165Y-82611289D01*
X120974554Y-82523709D01*
X120967307Y-82521438D01*
X120967305Y-82521437D01*
X120901388Y-82500780D01*
X120813226Y-82473152D01*
X120740831Y-82466500D01*
X120737933Y-82466500D01*
X119998078Y-82466501D01*
X119259170Y-82466501D01*
X119256311Y-82466764D01*
X119256303Y-82466764D01*
X119220802Y-82470026D01*
X119186774Y-82473152D01*
X119180395Y-82475151D01*
X119032695Y-82521437D01*
X119032693Y-82521438D01*
X119025446Y-82523709D01*
X118880835Y-82611289D01*
X118762529Y-82729595D01*
X118700217Y-82763621D01*
X118673434Y-82766500D01*
X113165545Y-82766500D01*
X113156976Y-82766208D01*
X113109042Y-82762940D01*
X113109038Y-82762940D01*
X113101466Y-82762424D01*
X113093989Y-82763729D01*
X113093986Y-82763729D01*
X113040853Y-82773002D01*
X113034329Y-82773965D01*
X112980809Y-82780442D01*
X112973265Y-82781355D01*
X112966155Y-82784042D01*
X112961252Y-82785246D01*
X112950766Y-82788114D01*
X112945974Y-82789561D01*
X112938496Y-82790866D01*
X112931544Y-82793918D01*
X112931543Y-82793918D01*
X112882159Y-82815595D01*
X112876054Y-82818086D01*
X112825618Y-82837145D01*
X112825615Y-82837147D01*
X112818511Y-82839831D01*
X112812254Y-82844131D01*
X112807786Y-82846467D01*
X112798340Y-82851725D01*
X112793974Y-82854307D01*
X112787015Y-82857362D01*
X112738196Y-82894823D01*
X112732877Y-82898686D01*
X112726666Y-82902955D01*
X112682174Y-82933534D01*
X112677123Y-82939203D01*
X112642268Y-82978323D01*
X112637287Y-82983598D01*
X112566290Y-83054595D01*
X112503978Y-83088621D01*
X112477195Y-83091500D01*
X112212928Y-83091500D01*
X112209682Y-83091837D01*
X112209678Y-83091837D01*
X112115765Y-83101581D01*
X112115761Y-83101582D01*
X112108907Y-83102293D01*
X112102371Y-83104474D01*
X112102369Y-83104474D01*
X111969605Y-83148768D01*
X111943893Y-83157346D01*
X111795969Y-83248884D01*
X111790796Y-83254066D01*
X111678242Y-83366816D01*
X111678238Y-83366821D01*
X111673071Y-83371997D01*
X111581791Y-83520080D01*
X111527026Y-83685191D01*
X111516500Y-83787928D01*
X111516500Y-84387072D01*
X111516837Y-84390318D01*
X111516837Y-84390322D01*
X111524915Y-84468172D01*
X111527293Y-84491093D01*
X111582346Y-84656107D01*
X111673884Y-84804031D01*
X111679066Y-84809204D01*
X111780786Y-84910747D01*
X111814865Y-84973030D01*
X111809862Y-85043850D01*
X111780941Y-85088937D01*
X111678246Y-85191812D01*
X111678242Y-85191817D01*
X111673071Y-85196997D01*
X111669231Y-85203227D01*
X111669230Y-85203228D01*
X111586364Y-85337662D01*
X111581791Y-85345080D01*
X111527026Y-85510191D01*
X111526326Y-85517027D01*
X111526325Y-85517030D01*
X111522958Y-85549896D01*
X111516500Y-85612928D01*
X111516500Y-86212072D01*
X110183500Y-86212072D01*
X110183500Y-82859305D01*
X110203502Y-82791184D01*
X110220405Y-82770210D01*
X111244210Y-81746405D01*
X111306522Y-81712379D01*
X111333305Y-81709500D01*
X142666695Y-81709500D01*
X142734816Y-81729502D01*
X142755790Y-81746405D01*
X143043595Y-82034210D01*
X143077621Y-82096522D01*
X143080500Y-82123305D01*
X143080500Y-82990733D01*
X143060498Y-83058854D01*
X143006842Y-83105347D01*
X142936568Y-83115451D01*
X142914833Y-83110326D01*
X142910992Y-83109052D01*
X142889809Y-83102026D01*
X142882973Y-83101326D01*
X142882970Y-83101325D01*
X142831474Y-83096049D01*
X142787072Y-83091500D01*
X142522805Y-83091500D01*
X142454684Y-83071498D01*
X142433710Y-83054595D01*
X142365656Y-82986541D01*
X142359802Y-82980276D01*
X142328204Y-82944055D01*
X142323210Y-82938330D01*
X142272845Y-82902934D01*
X142267577Y-82899020D01*
X142246757Y-82882695D01*
X142219172Y-82861065D01*
X142212248Y-82857939D01*
X142207939Y-82855329D01*
X142198524Y-82849958D01*
X142194076Y-82847573D01*
X142187861Y-82843205D01*
X142130539Y-82820856D01*
X142124471Y-82818306D01*
X142068395Y-82792986D01*
X142060918Y-82791600D01*
X142056098Y-82790090D01*
X142045665Y-82787118D01*
X142040804Y-82785870D01*
X142033728Y-82783111D01*
X141972738Y-82775082D01*
X141966222Y-82774050D01*
X141913200Y-82764223D01*
X141905733Y-82762839D01*
X141898153Y-82763276D01*
X141898152Y-82763276D01*
X141845858Y-82766291D01*
X141838606Y-82766500D01*
X136326566Y-82766500D01*
X136258445Y-82746498D01*
X136237471Y-82729595D01*
X136119165Y-82611289D01*
X135974554Y-82523709D01*
X135967307Y-82521438D01*
X135967305Y-82521437D01*
X135901388Y-82500780D01*
X135813226Y-82473152D01*
X135740831Y-82466500D01*
X135737933Y-82466500D01*
X134998078Y-82466501D01*
X134259170Y-82466501D01*
X134256311Y-82466764D01*
X134256303Y-82466764D01*
X134220802Y-82470026D01*
X134186774Y-82473152D01*
X134180395Y-82475151D01*
X134032695Y-82521437D01*
X134032693Y-82521438D01*
X134025446Y-82523709D01*
X133880835Y-82611289D01*
X133761289Y-82730835D01*
X133673709Y-82875446D01*
X133671438Y-82882693D01*
X133671437Y-82882695D01*
X133667010Y-82896822D01*
X133623152Y-83036774D01*
X133616500Y-83109169D01*
X133616501Y-83790830D01*
X133616764Y-83793689D01*
X133616764Y-83793697D01*
X133620026Y-83829198D01*
X133623152Y-83863226D01*
X133629155Y-83882382D01*
X133630440Y-83953365D01*
X133595892Y-84011230D01*
X133545144Y-84059641D01*
X133545139Y-84059646D01*
X133541282Y-84063326D01*
X133398598Y-84255100D01*
X133396182Y-84259851D01*
X133396180Y-84259855D01*
X133341757Y-84366898D01*
X133290267Y-84468172D01*
X133281120Y-84497631D01*
X133220968Y-84691349D01*
X133220967Y-84691355D01*
X133219384Y-84696452D01*
X133187977Y-84933411D01*
X133196945Y-85172274D01*
X133246030Y-85406211D01*
X133333829Y-85628533D01*
X133457832Y-85832883D01*
X133461329Y-85836913D01*
X133603535Y-86000791D01*
X133633074Y-86065350D01*
X133628604Y-86121049D01*
X133625647Y-86130486D01*
X133623035Y-86143528D01*
X133617266Y-86206312D01*
X133617000Y-86212101D01*
X133617000Y-86277885D01*
X133621475Y-86293124D01*
X133622865Y-86294329D01*
X133630548Y-86296000D01*
X134020094Y-86296000D01*
X134063085Y-86303561D01*
X134072885Y-86307118D01*
X134231753Y-86364784D01*
X134237002Y-86365733D01*
X134237005Y-86365734D01*
X134462885Y-86406580D01*
X134462893Y-86406581D01*
X134466969Y-86407318D01*
X134485359Y-86408185D01*
X134490544Y-86408430D01*
X134490551Y-86408430D01*
X134492032Y-86408500D01*
X135460012Y-86408500D01*
X135638175Y-86393383D01*
X135643339Y-86392043D01*
X135643343Y-86392042D01*
X135864375Y-86334673D01*
X135864380Y-86334671D01*
X135869540Y-86333332D01*
X135927733Y-86307118D01*
X135979484Y-86296000D01*
X136364884Y-86296000D01*
X136380123Y-86291525D01*
X136381328Y-86290135D01*
X136382999Y-86282452D01*
X136382999Y-86212087D01*
X136382736Y-86206337D01*
X136376964Y-86143519D01*
X136374354Y-86130486D01*
X136370442Y-86118003D01*
X136369158Y-86047018D01*
X136403703Y-85989156D01*
X136458718Y-85936674D01*
X136601402Y-85744900D01*
X136620852Y-85706646D01*
X136707314Y-85536586D01*
X136707314Y-85536585D01*
X136709733Y-85531828D01*
X136754631Y-85387233D01*
X136779032Y-85308651D01*
X136779033Y-85308645D01*
X136780616Y-85303548D01*
X136812023Y-85066589D01*
X136803055Y-84827726D01*
X136753970Y-84593789D01*
X136666171Y-84371467D01*
X136663401Y-84366903D01*
X136663399Y-84366898D01*
X136637893Y-84324865D01*
X136619654Y-84256251D01*
X136641406Y-84188669D01*
X136696242Y-84143575D01*
X136745612Y-84133500D01*
X141390500Y-84133500D01*
X141458621Y-84153502D01*
X141505114Y-84207158D01*
X141516500Y-84259500D01*
X141516500Y-84387072D01*
X141516837Y-84390318D01*
X141516837Y-84390322D01*
X141524915Y-84468172D01*
X141527293Y-84491093D01*
X141582346Y-84656107D01*
X141673884Y-84804031D01*
X141679066Y-84809204D01*
X141780786Y-84910747D01*
X141814865Y-84973030D01*
X141809862Y-85043850D01*
X141780941Y-85088937D01*
X141678246Y-85191812D01*
X141678242Y-85191817D01*
X141673071Y-85196997D01*
X141669231Y-85203227D01*
X141669230Y-85203228D01*
X141586364Y-85337662D01*
X141581791Y-85345080D01*
X141527026Y-85510191D01*
X141526326Y-85517027D01*
X141526325Y-85517030D01*
X141522958Y-85549896D01*
X141516500Y-85612928D01*
X141516500Y-86212072D01*
X141516837Y-86215318D01*
X141516837Y-86215322D01*
X141526362Y-86307118D01*
X141527293Y-86316093D01*
X141529474Y-86322629D01*
X141529474Y-86322631D01*
X141553079Y-86393383D01*
X141582346Y-86481107D01*
X141673884Y-86629031D01*
X141679066Y-86634204D01*
X141791816Y-86746758D01*
X141791821Y-86746762D01*
X141796997Y-86751929D01*
X141945080Y-86843209D01*
X142110191Y-86897974D01*
X142117027Y-86898674D01*
X142117030Y-86898675D01*
X142168526Y-86903951D01*
X142212928Y-86908500D01*
X142787072Y-86908500D01*
X142790318Y-86908163D01*
X142790322Y-86908163D01*
X142884235Y-86898419D01*
X142884239Y-86898418D01*
X142891093Y-86897707D01*
X142897629Y-86895526D01*
X142897631Y-86895526D01*
X143030395Y-86851232D01*
X143056107Y-86842654D01*
X143204031Y-86751116D01*
X143326929Y-86628003D01*
X143330771Y-86621771D01*
X143335306Y-86616028D01*
X143336700Y-86617129D01*
X143382583Y-86575837D01*
X143392523Y-86571980D01*
X143394504Y-86571634D01*
X143401449Y-86568585D01*
X143401457Y-86568583D01*
X143450841Y-86546905D01*
X143456946Y-86544414D01*
X143507382Y-86525355D01*
X143507385Y-86525353D01*
X143514489Y-86522669D01*
X143520746Y-86518369D01*
X143525214Y-86516033D01*
X143534660Y-86510775D01*
X143539026Y-86508193D01*
X143545985Y-86505138D01*
X143594804Y-86467677D01*
X143600123Y-86463814D01*
X143644565Y-86433269D01*
X143650826Y-86428966D01*
X143690733Y-86384176D01*
X143695713Y-86378902D01*
X144227459Y-85847156D01*
X144233724Y-85841302D01*
X144269945Y-85809704D01*
X144275670Y-85804710D01*
X144311046Y-85754374D01*
X144314972Y-85749088D01*
X144348251Y-85706646D01*
X144348252Y-85706645D01*
X144352935Y-85700672D01*
X144356060Y-85693751D01*
X144358673Y-85689436D01*
X144364042Y-85680024D01*
X144366427Y-85675576D01*
X144370795Y-85669361D01*
X144393142Y-85612044D01*
X144395697Y-85605966D01*
X144417886Y-85556823D01*
X144421014Y-85549896D01*
X144422399Y-85542424D01*
X144423919Y-85537573D01*
X144426862Y-85527243D01*
X144428130Y-85522304D01*
X144430889Y-85515228D01*
X144431881Y-85507695D01*
X144438922Y-85454215D01*
X144439953Y-85447703D01*
X144451160Y-85387233D01*
X144447709Y-85327369D01*
X144447500Y-85320117D01*
X144447500Y-81816056D01*
X144447792Y-81807486D01*
X144447863Y-81806443D01*
X144451577Y-81751966D01*
X144440997Y-81691342D01*
X144440034Y-81684819D01*
X144433558Y-81631308D01*
X144433558Y-81631307D01*
X144432645Y-81623765D01*
X144429959Y-81616655D01*
X144428754Y-81611752D01*
X144425886Y-81601266D01*
X144424439Y-81596474D01*
X144423134Y-81588996D01*
X144420082Y-81582043D01*
X144398405Y-81532659D01*
X144395914Y-81526554D01*
X144376855Y-81476118D01*
X144376853Y-81476115D01*
X144374169Y-81469011D01*
X144369869Y-81462754D01*
X144367533Y-81458286D01*
X144362275Y-81448840D01*
X144359693Y-81444474D01*
X144356638Y-81437515D01*
X144319177Y-81388696D01*
X144315314Y-81383377D01*
X144284769Y-81338935D01*
X144280466Y-81332674D01*
X144235676Y-81292767D01*
X144230402Y-81287787D01*
X143505156Y-80562541D01*
X143499302Y-80556276D01*
X143467704Y-80520055D01*
X143462710Y-80514330D01*
X143412345Y-80478934D01*
X143407077Y-80475020D01*
X143364649Y-80441752D01*
X143358672Y-80437065D01*
X143351748Y-80433939D01*
X143347439Y-80431329D01*
X143338024Y-80425958D01*
X143333576Y-80423573D01*
X143327361Y-80419205D01*
X143270039Y-80396856D01*
X143263971Y-80394306D01*
X143207895Y-80368986D01*
X143200418Y-80367600D01*
X143195598Y-80366090D01*
X143185165Y-80363118D01*
X143180304Y-80361870D01*
X143173228Y-80359111D01*
X143112238Y-80351082D01*
X143105722Y-80350050D01*
X143052700Y-80340223D01*
X143045233Y-80338839D01*
X143037653Y-80339276D01*
X143037652Y-80339276D01*
X142985358Y-80342291D01*
X142978106Y-80342500D01*
X142924305Y-80342500D01*
X142856184Y-80322498D01*
X142809691Y-80268842D01*
X142799587Y-80198568D01*
X142829081Y-80133988D01*
X142835210Y-80127405D01*
X142963459Y-79999156D01*
X142969724Y-79993302D01*
X143005945Y-79961704D01*
X143011670Y-79956710D01*
X143047066Y-79906345D01*
X143050980Y-79901077D01*
X143084248Y-79858649D01*
X143088935Y-79852672D01*
X143092061Y-79845748D01*
X143094671Y-79841439D01*
X143100042Y-79832024D01*
X143102427Y-79827576D01*
X143106795Y-79821361D01*
X143129144Y-79764039D01*
X143131698Y-79757962D01*
X143139156Y-79741446D01*
X143157014Y-79701895D01*
X143158400Y-79694418D01*
X143159910Y-79689598D01*
X143162882Y-79679165D01*
X143164130Y-79674304D01*
X143166889Y-79667228D01*
X143174918Y-79606238D01*
X143175950Y-79599722D01*
X143185777Y-79546700D01*
X143187161Y-79539233D01*
X143185824Y-79516034D01*
X143183709Y-79479358D01*
X143183500Y-79472106D01*
X143183500Y-79323809D01*
X143203502Y-79255688D01*
X143220327Y-79234791D01*
X143220637Y-79234481D01*
X143326929Y-79128003D01*
X143330770Y-79121772D01*
X143414369Y-78986150D01*
X143414370Y-78986148D01*
X143418209Y-78979920D01*
X143472974Y-78814809D01*
X143474127Y-78803561D01*
X143483172Y-78715271D01*
X143483500Y-78712072D01*
X143483500Y-78112928D01*
X143475579Y-78036586D01*
X143473419Y-78015765D01*
X143473418Y-78015761D01*
X143472707Y-78008907D01*
X143417654Y-77843893D01*
X143326116Y-77695969D01*
X143297039Y-77666943D01*
X143219214Y-77589253D01*
X143185135Y-77526970D01*
X143190138Y-77456150D01*
X143219059Y-77411063D01*
X143321754Y-77308188D01*
X143321758Y-77308183D01*
X143326929Y-77303003D01*
X143395754Y-77191349D01*
X143414369Y-77161150D01*
X143414370Y-77161148D01*
X143418209Y-77154920D01*
X143472974Y-76989809D01*
X143475679Y-76963414D01*
X143483172Y-76890271D01*
X143483500Y-76887072D01*
X143483500Y-76287928D01*
X143472707Y-76183907D01*
X143417654Y-76018893D01*
X143326116Y-75870969D01*
X143320934Y-75865796D01*
X143208184Y-75753242D01*
X143208179Y-75753238D01*
X143203003Y-75748071D01*
X143054920Y-75656791D01*
X142889809Y-75602026D01*
X142882973Y-75601326D01*
X142882970Y-75601325D01*
X142831474Y-75596049D01*
X142787072Y-75591500D01*
X142522805Y-75591500D01*
X142454684Y-75571498D01*
X142433710Y-75554595D01*
X142365656Y-75486541D01*
X142359802Y-75480276D01*
X142328204Y-75444055D01*
X142323210Y-75438330D01*
X142272845Y-75402934D01*
X142267577Y-75399020D01*
X142246757Y-75382695D01*
X142219172Y-75361065D01*
X142212248Y-75357939D01*
X142207939Y-75355329D01*
X142198524Y-75349958D01*
X142194076Y-75347573D01*
X142187861Y-75343205D01*
X142130539Y-75320856D01*
X142124471Y-75318306D01*
X142068395Y-75292986D01*
X142060918Y-75291600D01*
X142056098Y-75290090D01*
X142045665Y-75287118D01*
X142040804Y-75285870D01*
X142033728Y-75283111D01*
X141972738Y-75275082D01*
X141966222Y-75274050D01*
X141913200Y-75264223D01*
X141905733Y-75262839D01*
X141898153Y-75263276D01*
X141898152Y-75263276D01*
X141845858Y-75266291D01*
X141838606Y-75266500D01*
X136326566Y-75266500D01*
X136258445Y-75246498D01*
X136237471Y-75229595D01*
X136119165Y-75111289D01*
X135974554Y-75023709D01*
X135967307Y-75021438D01*
X135967305Y-75021437D01*
X135901388Y-75000780D01*
X135813226Y-74973152D01*
X135740831Y-74966500D01*
X135737933Y-74966500D01*
X134998078Y-74966501D01*
X134259170Y-74966501D01*
X134256311Y-74966764D01*
X134256303Y-74966764D01*
X134220802Y-74970026D01*
X134186774Y-74973152D01*
X134180395Y-74975151D01*
X134032695Y-75021437D01*
X134032693Y-75021438D01*
X134025446Y-75023709D01*
X133880835Y-75111289D01*
X133761289Y-75230835D01*
X133673709Y-75375446D01*
X133671438Y-75382693D01*
X133671437Y-75382695D01*
X133667010Y-75396822D01*
X133623152Y-75536774D01*
X133616500Y-75609169D01*
X133616501Y-76290830D01*
X133616764Y-76293689D01*
X133616764Y-76293697D01*
X133620026Y-76329198D01*
X133623152Y-76363226D01*
X133629155Y-76382382D01*
X133630440Y-76453365D01*
X133595892Y-76511230D01*
X133545144Y-76559641D01*
X133545139Y-76559646D01*
X133541282Y-76563326D01*
X133398598Y-76755100D01*
X133396182Y-76759851D01*
X133396180Y-76759855D01*
X133341757Y-76866898D01*
X133290267Y-76968172D01*
X133281120Y-76997631D01*
X133220968Y-77191349D01*
X133220967Y-77191355D01*
X133219384Y-77196452D01*
X133187977Y-77433411D01*
X133196945Y-77672274D01*
X133246030Y-77906211D01*
X133333829Y-78128533D01*
X133457832Y-78332883D01*
X133461329Y-78336913D01*
X133603535Y-78500791D01*
X133633074Y-78565350D01*
X133628604Y-78621049D01*
X133625647Y-78630486D01*
X133623035Y-78643528D01*
X133617266Y-78706312D01*
X133617000Y-78712101D01*
X133617000Y-78777885D01*
X133621475Y-78793124D01*
X133622865Y-78794329D01*
X133630548Y-78796000D01*
X134020094Y-78796000D01*
X134063085Y-78803561D01*
X134072885Y-78807118D01*
X134231753Y-78864784D01*
X134237002Y-78865733D01*
X134237005Y-78865734D01*
X134462885Y-78906580D01*
X134462893Y-78906581D01*
X134466969Y-78907318D01*
X134485359Y-78908185D01*
X134490544Y-78908430D01*
X134490551Y-78908430D01*
X134492032Y-78908500D01*
X135460012Y-78908500D01*
X135638175Y-78893383D01*
X135643339Y-78892043D01*
X135643343Y-78892042D01*
X135864375Y-78834673D01*
X135864380Y-78834671D01*
X135869540Y-78833332D01*
X135907809Y-78816093D01*
X135927733Y-78807118D01*
X135979484Y-78796000D01*
X136364884Y-78796000D01*
X136380123Y-78791525D01*
X136381328Y-78790135D01*
X136382999Y-78782452D01*
X136382999Y-78712087D01*
X136382736Y-78706337D01*
X136376964Y-78643519D01*
X136374354Y-78630486D01*
X136370442Y-78618003D01*
X136369158Y-78547018D01*
X136403703Y-78489156D01*
X136458718Y-78436674D01*
X136601402Y-78244900D01*
X136709733Y-78031828D01*
X136768089Y-77843893D01*
X136779032Y-77808651D01*
X136779033Y-77808645D01*
X136780616Y-77803548D01*
X136812023Y-77566589D01*
X136803055Y-77327726D01*
X136753970Y-77093789D01*
X136666171Y-76871467D01*
X136663401Y-76866903D01*
X136663399Y-76866898D01*
X136637893Y-76824865D01*
X136619654Y-76756251D01*
X136641406Y-76688669D01*
X136696242Y-76643575D01*
X136745612Y-76633500D01*
X141390500Y-76633500D01*
X141458621Y-76653502D01*
X141505114Y-76707158D01*
X141516500Y-76759500D01*
X141516500Y-76887072D01*
X141516837Y-76890318D01*
X141516837Y-76890322D01*
X141524915Y-76968172D01*
X141527293Y-76991093D01*
X141582346Y-77156107D01*
X141673884Y-77304031D01*
X141679066Y-77309204D01*
X141780786Y-77410747D01*
X141814865Y-77473030D01*
X141809862Y-77543850D01*
X141780941Y-77588937D01*
X141678246Y-77691812D01*
X141678242Y-77691817D01*
X141673071Y-77696997D01*
X141669231Y-77703227D01*
X141669230Y-77703228D01*
X141586364Y-77837662D01*
X141581791Y-77845080D01*
X141527026Y-78010191D01*
X141526326Y-78017027D01*
X141526325Y-78017030D01*
X141521049Y-78068526D01*
X141516500Y-78112928D01*
X141516500Y-78712072D01*
X141516837Y-78715318D01*
X141516837Y-78715322D01*
X141526362Y-78807118D01*
X141527293Y-78816093D01*
X141529474Y-78822629D01*
X141529474Y-78822631D01*
X141553079Y-78893383D01*
X141582346Y-78981107D01*
X141673884Y-79129031D01*
X141697967Y-79153072D01*
X141732047Y-79215352D01*
X141727045Y-79286172D01*
X141698045Y-79331340D01*
X141485790Y-79543595D01*
X141423478Y-79577621D01*
X141396695Y-79580500D01*
X136503677Y-79580500D01*
X136435556Y-79560498D01*
X136389063Y-79506842D01*
X136378206Y-79442971D01*
X136382734Y-79393688D01*
X136383000Y-79387899D01*
X136383000Y-79322115D01*
X136378525Y-79306876D01*
X136377135Y-79305671D01*
X136369452Y-79304000D01*
X133635116Y-79304000D01*
X133619877Y-79308475D01*
X133618672Y-79309865D01*
X133617001Y-79317548D01*
X133617001Y-79387913D01*
X133617264Y-79393660D01*
X133621795Y-79442972D01*
X133608109Y-79512637D01*
X133558932Y-79563844D01*
X133496323Y-79580500D01*
X132099305Y-79580500D01*
X132031184Y-79560498D01*
X132010210Y-79543595D01*
X131720405Y-79253790D01*
X131686379Y-79191478D01*
X131683500Y-79164695D01*
X131683500Y-71887913D01*
X133617001Y-71887913D01*
X133617264Y-71893663D01*
X133623036Y-71956481D01*
X133625646Y-71969514D01*
X133671896Y-72117098D01*
X133678103Y-72130844D01*
X133757748Y-72262354D01*
X133767061Y-72274231D01*
X133875769Y-72382939D01*
X133887646Y-72392252D01*
X134019156Y-72471897D01*
X134032902Y-72478104D01*
X134180481Y-72524352D01*
X134193528Y-72526965D01*
X134256312Y-72532734D01*
X134262101Y-72533000D01*
X134727885Y-72533000D01*
X134743124Y-72528525D01*
X134744329Y-72527135D01*
X134746000Y-72519452D01*
X134746000Y-72514884D01*
X135254000Y-72514884D01*
X135258475Y-72530123D01*
X135259865Y-72531328D01*
X135267548Y-72532999D01*
X135737913Y-72532999D01*
X135743663Y-72532736D01*
X135806481Y-72526964D01*
X135819514Y-72524354D01*
X135967098Y-72478104D01*
X135980844Y-72471897D01*
X136112354Y-72392252D01*
X136124231Y-72382939D01*
X136232939Y-72274231D01*
X136242252Y-72262354D01*
X136321897Y-72130844D01*
X136328104Y-72117098D01*
X136374352Y-71969519D01*
X136376965Y-71956472D01*
X136382734Y-71893688D01*
X136383000Y-71887899D01*
X136383000Y-71822115D01*
X136378525Y-71806876D01*
X136377135Y-71805671D01*
X136369452Y-71804000D01*
X135272115Y-71804000D01*
X135256876Y-71808475D01*
X135255671Y-71809865D01*
X135254000Y-71817548D01*
X135254000Y-72514884D01*
X134746000Y-72514884D01*
X134746000Y-71822115D01*
X134741525Y-71806876D01*
X134740135Y-71805671D01*
X134732452Y-71804000D01*
X133635116Y-71804000D01*
X133619877Y-71808475D01*
X133618672Y-71809865D01*
X133617001Y-71817548D01*
X133617001Y-71887913D01*
X131683500Y-71887913D01*
X131683500Y-65335305D01*
X131703502Y-65267184D01*
X131720405Y-65246210D01*
X136746210Y-60220405D01*
X136808522Y-60186379D01*
X136835305Y-60183500D01*
X141954193Y-60183500D01*
X142022314Y-60203502D01*
X142068807Y-60257158D01*
X142075900Y-60276888D01*
X142158639Y-60585674D01*
X142290427Y-60928994D01*
X142457380Y-61256657D01*
X142657668Y-61565075D01*
X142889098Y-61850867D01*
X143149133Y-62110902D01*
X143434925Y-62342332D01*
X143743342Y-62542620D01*
X143746276Y-62544115D01*
X143746283Y-62544119D01*
X144068066Y-62708075D01*
X144071006Y-62709573D01*
X144414326Y-62841361D01*
X144769541Y-62936541D01*
X144962558Y-62967112D01*
X145129511Y-62993555D01*
X145129519Y-62993556D01*
X145132759Y-62994069D01*
X145500000Y-63013315D01*
X145867241Y-62994069D01*
X145870481Y-62993556D01*
X145870489Y-62993555D01*
X146037442Y-62967112D01*
X146230459Y-62936541D01*
X146585674Y-62841361D01*
X146928994Y-62709573D01*
X146931934Y-62708075D01*
X147253717Y-62544119D01*
X147253724Y-62544115D01*
X147256658Y-62542620D01*
X147565075Y-62342332D01*
X147850867Y-62110902D01*
X148110902Y-61850867D01*
X148342332Y-61565075D01*
X148542620Y-61256657D01*
X148709573Y-60928994D01*
X148841361Y-60585674D01*
X148936541Y-60230459D01*
X148994069Y-59867241D01*
X149013315Y-59500000D01*
X148994069Y-59132759D01*
X148978364Y-59033598D01*
X148964302Y-58944819D01*
X148936541Y-58769541D01*
X148841361Y-58414326D01*
X148709573Y-58071006D01*
X148542620Y-57743343D01*
X148342332Y-57434925D01*
X148110902Y-57149133D01*
X147850867Y-56889098D01*
X147565075Y-56657668D01*
X147256658Y-56457380D01*
X147253724Y-56455885D01*
X147253717Y-56455881D01*
X146931934Y-56291925D01*
X146928994Y-56290427D01*
X146585674Y-56158639D01*
X146230459Y-56063459D01*
X146037442Y-56032888D01*
X145870489Y-56006445D01*
X145870481Y-56006444D01*
X145867241Y-56005931D01*
X145500000Y-55986685D01*
X145132759Y-56005931D01*
X145129519Y-56006444D01*
X145129511Y-56006445D01*
X144962558Y-56032888D01*
X144769541Y-56063459D01*
X144414326Y-56158639D01*
X144071006Y-56290427D01*
X144068066Y-56291925D01*
X143746284Y-56455881D01*
X143746277Y-56455885D01*
X143743343Y-56457380D01*
X143434925Y-56657668D01*
X143149133Y-56889098D01*
X142889098Y-57149133D01*
X142657668Y-57434925D01*
X142457380Y-57743343D01*
X142290427Y-58071006D01*
X142158639Y-58414326D01*
X142075900Y-58723111D01*
X142038948Y-58783734D01*
X141975087Y-58814755D01*
X141954193Y-58816500D01*
X136528056Y-58816500D01*
X136519486Y-58816208D01*
X136518443Y-58816137D01*
X136463966Y-58812423D01*
X136456489Y-58813728D01*
X136456486Y-58813728D01*
X136403342Y-58823003D01*
X136396819Y-58823966D01*
X136343308Y-58830442D01*
X136343307Y-58830442D01*
X136335765Y-58831355D01*
X136328655Y-58834041D01*
X136323752Y-58835246D01*
X136313300Y-58838105D01*
X136308484Y-58839559D01*
X136300996Y-58840866D01*
X136244627Y-58865610D01*
X136238588Y-58868075D01*
X136181011Y-58889831D01*
X136174748Y-58894136D01*
X136170258Y-58896483D01*
X136160807Y-58901743D01*
X136156466Y-58904310D01*
X136149515Y-58907361D01*
X136143495Y-58911980D01*
X136143487Y-58911985D01*
X136100698Y-58944819D01*
X136095384Y-58948681D01*
X136044674Y-58983534D01*
X136039624Y-58989202D01*
X136004768Y-59028323D01*
X135999787Y-59033598D01*
X130536541Y-64496844D01*
X130530276Y-64502698D01*
X130488330Y-64539290D01*
X130452934Y-64589655D01*
X130449022Y-64594920D01*
X130411065Y-64643328D01*
X130407939Y-64650252D01*
X130405329Y-64654561D01*
X130399958Y-64663976D01*
X130397573Y-64668424D01*
X130393205Y-64674639D01*
X130390446Y-64681716D01*
X130370858Y-64731957D01*
X130368306Y-64738029D01*
X130342986Y-64794105D01*
X130341600Y-64801582D01*
X130340090Y-64806402D01*
X130337118Y-64816835D01*
X130335870Y-64821696D01*
X130333111Y-64828772D01*
X130325180Y-64889019D01*
X130325082Y-64889762D01*
X130324050Y-64896278D01*
X130312839Y-64956767D01*
X130313276Y-64964347D01*
X130313276Y-64964348D01*
X130316291Y-65016642D01*
X130316500Y-65023894D01*
X130316500Y-79164695D01*
X130296498Y-79232816D01*
X130279595Y-79253790D01*
X129989790Y-79543595D01*
X129927478Y-79577621D01*
X129900695Y-79580500D01*
X129003677Y-79580500D01*
X128935556Y-79560498D01*
X128889063Y-79506842D01*
X128878206Y-79442971D01*
X128882734Y-79393688D01*
X128883000Y-79387899D01*
X128883000Y-79322115D01*
X128878525Y-79306876D01*
X128877135Y-79305671D01*
X128869452Y-79304000D01*
X126135116Y-79304000D01*
X126119877Y-79308475D01*
X126118672Y-79309865D01*
X126117001Y-79317548D01*
X126117001Y-79387913D01*
X126117264Y-79393660D01*
X126121795Y-79442972D01*
X126108109Y-79512637D01*
X126058932Y-79563844D01*
X125996323Y-79580500D01*
X121503677Y-79580500D01*
X121435556Y-79560498D01*
X121389063Y-79506842D01*
X121378206Y-79442971D01*
X121382734Y-79393688D01*
X121383000Y-79387899D01*
X121383000Y-79322115D01*
X121378525Y-79306876D01*
X121377135Y-79305671D01*
X121369452Y-79304000D01*
X118635116Y-79304000D01*
X118619877Y-79308475D01*
X118618672Y-79309865D01*
X118617001Y-79317548D01*
X118617001Y-79387913D01*
X118617264Y-79393660D01*
X118621795Y-79442972D01*
X118608109Y-79512637D01*
X118558932Y-79563844D01*
X118496323Y-79580500D01*
X113619305Y-79580500D01*
X113551184Y-79560498D01*
X113530210Y-79543595D01*
X113309884Y-79323269D01*
X113275858Y-79260957D01*
X113280923Y-79190142D01*
X113309806Y-79145157D01*
X113321754Y-79133188D01*
X113321758Y-79133183D01*
X113326929Y-79128003D01*
X113330770Y-79121772D01*
X113414369Y-78986150D01*
X113414370Y-78986148D01*
X113418209Y-78979920D01*
X113472974Y-78814809D01*
X113474127Y-78803561D01*
X113483172Y-78715271D01*
X113483500Y-78712072D01*
X113483500Y-78112928D01*
X113475579Y-78036586D01*
X113473419Y-78015765D01*
X113473418Y-78015761D01*
X113472707Y-78008907D01*
X113417654Y-77843893D01*
X113326116Y-77695969D01*
X113297039Y-77666943D01*
X113219214Y-77589253D01*
X113185135Y-77526970D01*
X113190138Y-77456150D01*
X113219059Y-77411063D01*
X113321754Y-77308188D01*
X113321758Y-77308183D01*
X113326929Y-77303003D01*
X113395754Y-77191349D01*
X113414369Y-77161150D01*
X113414370Y-77161148D01*
X113418209Y-77154920D01*
X113472974Y-76989809D01*
X113475679Y-76963414D01*
X113483172Y-76890271D01*
X113483500Y-76887072D01*
X113483500Y-76759500D01*
X113503502Y-76691379D01*
X113557158Y-76644886D01*
X113609500Y-76633500D01*
X118255010Y-76633500D01*
X118323131Y-76653502D01*
X118369624Y-76707158D01*
X118379728Y-76777432D01*
X118367327Y-76816604D01*
X118292688Y-76963409D01*
X118292686Y-76963414D01*
X118290267Y-76968172D01*
X118281120Y-76997631D01*
X118220968Y-77191349D01*
X118220967Y-77191355D01*
X118219384Y-77196452D01*
X118187977Y-77433411D01*
X118196945Y-77672274D01*
X118246030Y-77906211D01*
X118333829Y-78128533D01*
X118457832Y-78332883D01*
X118461329Y-78336913D01*
X118603535Y-78500791D01*
X118633074Y-78565350D01*
X118628604Y-78621049D01*
X118625647Y-78630486D01*
X118623035Y-78643528D01*
X118617266Y-78706312D01*
X118617000Y-78712101D01*
X118617000Y-78777885D01*
X118621475Y-78793124D01*
X118622865Y-78794329D01*
X118630548Y-78796000D01*
X119020094Y-78796000D01*
X119063085Y-78803561D01*
X119072885Y-78807118D01*
X119231753Y-78864784D01*
X119237002Y-78865733D01*
X119237005Y-78865734D01*
X119462885Y-78906580D01*
X119462893Y-78906581D01*
X119466969Y-78907318D01*
X119485359Y-78908185D01*
X119490544Y-78908430D01*
X119490551Y-78908430D01*
X119492032Y-78908500D01*
X120460012Y-78908500D01*
X120638175Y-78893383D01*
X120643339Y-78892043D01*
X120643343Y-78892042D01*
X120864375Y-78834673D01*
X120864380Y-78834671D01*
X120869540Y-78833332D01*
X120907809Y-78816093D01*
X120927733Y-78807118D01*
X120979484Y-78796000D01*
X121364884Y-78796000D01*
X121380123Y-78791525D01*
X121381328Y-78790135D01*
X121382999Y-78782452D01*
X121382999Y-78712087D01*
X121382736Y-78706337D01*
X121376964Y-78643519D01*
X121374354Y-78630486D01*
X121370442Y-78618003D01*
X121369158Y-78547018D01*
X121403703Y-78489156D01*
X121458718Y-78436674D01*
X121601402Y-78244900D01*
X121709733Y-78031828D01*
X121768089Y-77843893D01*
X121779032Y-77808651D01*
X121779033Y-77808645D01*
X121780616Y-77803548D01*
X121812023Y-77566589D01*
X121803055Y-77327726D01*
X121753970Y-77093789D01*
X121666171Y-76871467D01*
X121542168Y-76667117D01*
X121452103Y-76563326D01*
X121396850Y-76499652D01*
X121367311Y-76435092D01*
X121371781Y-76379396D01*
X121374847Y-76369611D01*
X121376848Y-76363226D01*
X121383500Y-76290831D01*
X121383499Y-75609170D01*
X121383234Y-75606278D01*
X121377459Y-75543428D01*
X121376848Y-75536774D01*
X121332990Y-75396822D01*
X121328563Y-75382695D01*
X121328562Y-75382693D01*
X121326291Y-75375446D01*
X121238711Y-75230835D01*
X121119165Y-75111289D01*
X120974554Y-75023709D01*
X120967307Y-75021438D01*
X120967305Y-75021437D01*
X120901388Y-75000780D01*
X120813226Y-74973152D01*
X120740831Y-74966500D01*
X120737933Y-74966500D01*
X119998078Y-74966501D01*
X119259170Y-74966501D01*
X119256311Y-74966764D01*
X119256303Y-74966764D01*
X119220802Y-74970026D01*
X119186774Y-74973152D01*
X119180395Y-74975151D01*
X119032695Y-75021437D01*
X119032693Y-75021438D01*
X119025446Y-75023709D01*
X118880835Y-75111289D01*
X118762529Y-75229595D01*
X118700217Y-75263621D01*
X118673434Y-75266500D01*
X113165545Y-75266500D01*
X113156976Y-75266208D01*
X113109042Y-75262940D01*
X113109038Y-75262940D01*
X113101466Y-75262424D01*
X113093989Y-75263729D01*
X113093986Y-75263729D01*
X113040853Y-75273002D01*
X113034329Y-75273965D01*
X112980809Y-75280442D01*
X112973265Y-75281355D01*
X112966155Y-75284042D01*
X112961252Y-75285246D01*
X112950766Y-75288114D01*
X112945974Y-75289561D01*
X112938496Y-75290866D01*
X112931544Y-75293918D01*
X112931543Y-75293918D01*
X112882159Y-75315595D01*
X112876054Y-75318086D01*
X112825618Y-75337145D01*
X112825615Y-75337147D01*
X112818511Y-75339831D01*
X112812254Y-75344131D01*
X112807786Y-75346467D01*
X112798340Y-75351725D01*
X112793974Y-75354307D01*
X112787015Y-75357362D01*
X112738196Y-75394823D01*
X112732877Y-75398686D01*
X112726666Y-75402955D01*
X112682174Y-75433534D01*
X112677123Y-75439203D01*
X112642268Y-75478323D01*
X112637287Y-75483598D01*
X112566290Y-75554595D01*
X112503978Y-75588621D01*
X112477195Y-75591500D01*
X112212928Y-75591500D01*
X112209682Y-75591837D01*
X112209678Y-75591837D01*
X112115765Y-75601581D01*
X112115761Y-75601582D01*
X112108907Y-75602293D01*
X112102371Y-75604474D01*
X112102369Y-75604474D01*
X111969605Y-75648768D01*
X111943893Y-75657346D01*
X111795969Y-75748884D01*
X111790796Y-75754066D01*
X111678242Y-75866816D01*
X111678238Y-75866821D01*
X111673071Y-75871997D01*
X111669231Y-75878227D01*
X111669230Y-75878228D01*
X111586364Y-76012662D01*
X111581791Y-76020080D01*
X111527026Y-76185191D01*
X111516500Y-76287928D01*
X111516500Y-76887072D01*
X111516837Y-76890318D01*
X111516837Y-76890322D01*
X111524915Y-76968172D01*
X111527293Y-76991093D01*
X111582346Y-77156107D01*
X111673884Y-77304031D01*
X111679066Y-77309204D01*
X111780786Y-77410747D01*
X111814865Y-77473030D01*
X111809862Y-77543850D01*
X111780941Y-77588937D01*
X111678246Y-77691812D01*
X111678242Y-77691817D01*
X111673071Y-77696997D01*
X111669231Y-77703227D01*
X111669230Y-77703228D01*
X111586364Y-77837662D01*
X111581791Y-77845080D01*
X111527026Y-78010191D01*
X111526326Y-78017027D01*
X111526325Y-78017030D01*
X111521049Y-78068526D01*
X111516500Y-78112928D01*
X111516500Y-78712072D01*
X111516837Y-78715318D01*
X111516837Y-78715322D01*
X111526362Y-78807118D01*
X111527293Y-78816093D01*
X111529474Y-78822629D01*
X111529474Y-78822631D01*
X111553079Y-78893383D01*
X111582346Y-78981107D01*
X111673884Y-79129031D01*
X111679065Y-79134203D01*
X111679066Y-79134204D01*
X111779518Y-79234481D01*
X111813597Y-79296763D01*
X111816500Y-79323654D01*
X111816500Y-79451955D01*
X111816208Y-79460524D01*
X111813051Y-79506842D01*
X111812424Y-79516034D01*
X111813729Y-79523511D01*
X111813729Y-79523514D01*
X111823002Y-79576647D01*
X111823965Y-79583171D01*
X111831355Y-79644235D01*
X111834042Y-79651345D01*
X111835246Y-79656248D01*
X111838114Y-79666734D01*
X111839561Y-79671526D01*
X111840866Y-79679004D01*
X111843918Y-79685956D01*
X111843918Y-79685957D01*
X111865595Y-79735341D01*
X111868086Y-79741446D01*
X111887145Y-79791882D01*
X111889831Y-79798989D01*
X111894131Y-79805246D01*
X111896467Y-79809714D01*
X111901725Y-79819160D01*
X111904307Y-79823526D01*
X111907362Y-79830485D01*
X111944823Y-79879304D01*
X111948686Y-79884623D01*
X111975283Y-79923321D01*
X111983534Y-79935326D01*
X111989203Y-79940377D01*
X112028323Y-79975232D01*
X112033598Y-79980213D01*
X112180790Y-80127405D01*
X112214816Y-80189717D01*
X112209751Y-80260532D01*
X112167204Y-80317368D01*
X112100684Y-80342179D01*
X112091695Y-80342500D01*
X111026056Y-80342500D01*
X111017486Y-80342208D01*
X111016443Y-80342137D01*
X110961966Y-80338423D01*
X110954489Y-80339728D01*
X110954486Y-80339728D01*
X110901342Y-80349003D01*
X110894819Y-80349966D01*
X110841308Y-80356442D01*
X110841307Y-80356442D01*
X110833765Y-80357355D01*
X110826655Y-80360041D01*
X110821752Y-80361246D01*
X110811266Y-80364114D01*
X110806474Y-80365561D01*
X110798996Y-80366866D01*
X110792044Y-80369918D01*
X110792043Y-80369918D01*
X110742659Y-80391595D01*
X110736554Y-80394086D01*
X110686118Y-80413145D01*
X110686115Y-80413147D01*
X110679011Y-80415831D01*
X110672754Y-80420131D01*
X110668286Y-80422467D01*
X110658840Y-80427725D01*
X110654474Y-80430307D01*
X110647515Y-80433362D01*
X110598696Y-80470823D01*
X110593377Y-80474686D01*
X110587166Y-80478955D01*
X110542674Y-80509534D01*
X110537623Y-80515203D01*
X110502768Y-80554323D01*
X110497787Y-80559598D01*
X110398595Y-80658790D01*
X110336283Y-80692816D01*
X110265468Y-80687751D01*
X110208632Y-80645204D01*
X110183821Y-80578684D01*
X110183500Y-80569695D01*
X110183500Y-72953305D01*
X110203502Y-72885184D01*
X110220405Y-72864210D01*
X111451710Y-71632905D01*
X111514022Y-71598879D01*
X111540805Y-71596000D01*
X111588669Y-71596000D01*
X111656790Y-71616002D01*
X111677685Y-71632826D01*
X111796997Y-71751929D01*
X111945080Y-71843209D01*
X112110191Y-71897974D01*
X112117027Y-71898674D01*
X112117030Y-71898675D01*
X112168526Y-71903951D01*
X112212928Y-71908500D01*
X112787072Y-71908500D01*
X112790318Y-71908163D01*
X112790322Y-71908163D01*
X112884235Y-71898419D01*
X112884239Y-71898418D01*
X112891093Y-71897707D01*
X112897629Y-71895526D01*
X112897631Y-71895526D01*
X112920450Y-71887913D01*
X118617001Y-71887913D01*
X118617264Y-71893663D01*
X118623036Y-71956481D01*
X118625646Y-71969514D01*
X118671896Y-72117098D01*
X118678103Y-72130844D01*
X118757748Y-72262354D01*
X118767061Y-72274231D01*
X118875769Y-72382939D01*
X118887646Y-72392252D01*
X119019156Y-72471897D01*
X119032902Y-72478104D01*
X119180481Y-72524352D01*
X119193528Y-72526965D01*
X119256312Y-72532734D01*
X119262101Y-72533000D01*
X119727885Y-72533000D01*
X119743124Y-72528525D01*
X119744329Y-72527135D01*
X119746000Y-72519452D01*
X119746000Y-72514884D01*
X120254000Y-72514884D01*
X120258475Y-72530123D01*
X120259865Y-72531328D01*
X120267548Y-72532999D01*
X120737913Y-72532999D01*
X120743663Y-72532736D01*
X120806481Y-72526964D01*
X120819514Y-72524354D01*
X120967098Y-72478104D01*
X120980844Y-72471897D01*
X121112354Y-72392252D01*
X121124231Y-72382939D01*
X121232939Y-72274231D01*
X121242252Y-72262354D01*
X121321897Y-72130844D01*
X121328104Y-72117098D01*
X121374352Y-71969519D01*
X121376965Y-71956472D01*
X121382734Y-71893688D01*
X121383000Y-71887899D01*
X121383000Y-71822115D01*
X121378525Y-71806876D01*
X121377135Y-71805671D01*
X121369452Y-71804000D01*
X120272115Y-71804000D01*
X120256876Y-71808475D01*
X120255671Y-71809865D01*
X120254000Y-71817548D01*
X120254000Y-72514884D01*
X119746000Y-72514884D01*
X119746000Y-71822115D01*
X119741525Y-71806876D01*
X119740135Y-71805671D01*
X119732452Y-71804000D01*
X118635116Y-71804000D01*
X118619877Y-71808475D01*
X118618672Y-71809865D01*
X118617001Y-71817548D01*
X118617001Y-71887913D01*
X112920450Y-71887913D01*
X113030395Y-71851232D01*
X113056107Y-71842654D01*
X113204031Y-71751116D01*
X113209204Y-71745934D01*
X113321758Y-71633184D01*
X113321762Y-71633179D01*
X113326929Y-71628003D01*
X113344867Y-71598903D01*
X113414369Y-71486150D01*
X113414370Y-71486148D01*
X113418209Y-71479920D01*
X113472974Y-71314809D01*
X113474127Y-71303561D01*
X113483172Y-71215271D01*
X113483500Y-71212072D01*
X113483500Y-70612928D01*
X113475579Y-70536586D01*
X113473419Y-70515765D01*
X113473418Y-70515761D01*
X113472707Y-70508907D01*
X113449993Y-70440823D01*
X113423423Y-70361186D01*
X113417654Y-70343893D01*
X113326116Y-70195969D01*
X113297039Y-70166943D01*
X113219214Y-70089253D01*
X113185135Y-70026970D01*
X113190138Y-69956150D01*
X113219059Y-69911063D01*
X113321754Y-69808188D01*
X113321758Y-69808183D01*
X113326929Y-69803003D01*
X113395754Y-69691349D01*
X113414369Y-69661150D01*
X113414370Y-69661148D01*
X113418209Y-69654920D01*
X113472974Y-69489809D01*
X113475679Y-69463414D01*
X113483172Y-69390271D01*
X113483500Y-69387072D01*
X113483500Y-69259500D01*
X113503502Y-69191379D01*
X113557158Y-69144886D01*
X113609500Y-69133500D01*
X118255010Y-69133500D01*
X118323131Y-69153502D01*
X118369624Y-69207158D01*
X118379728Y-69277432D01*
X118367327Y-69316604D01*
X118292688Y-69463409D01*
X118292686Y-69463414D01*
X118290267Y-69468172D01*
X118281120Y-69497631D01*
X118220968Y-69691349D01*
X118220967Y-69691355D01*
X118219384Y-69696452D01*
X118187977Y-69933411D01*
X118196945Y-70172274D01*
X118210558Y-70237151D01*
X118243895Y-70396034D01*
X118246030Y-70406211D01*
X118333829Y-70628533D01*
X118457832Y-70832883D01*
X118461329Y-70836913D01*
X118603535Y-71000791D01*
X118633074Y-71065350D01*
X118628604Y-71121049D01*
X118625647Y-71130486D01*
X118623035Y-71143528D01*
X118617266Y-71206312D01*
X118617000Y-71212101D01*
X118617000Y-71277885D01*
X118621475Y-71293124D01*
X118622865Y-71294329D01*
X118630548Y-71296000D01*
X119020094Y-71296000D01*
X119063085Y-71303561D01*
X119072885Y-71307118D01*
X119231753Y-71364784D01*
X119237002Y-71365733D01*
X119237005Y-71365734D01*
X119462885Y-71406580D01*
X119462893Y-71406581D01*
X119466969Y-71407318D01*
X119485359Y-71408185D01*
X119490544Y-71408430D01*
X119490551Y-71408430D01*
X119492032Y-71408500D01*
X120460012Y-71408500D01*
X120638175Y-71393383D01*
X120643339Y-71392043D01*
X120643343Y-71392042D01*
X120864375Y-71334673D01*
X120864380Y-71334671D01*
X120869540Y-71333332D01*
X120907809Y-71316093D01*
X120927733Y-71307118D01*
X120979484Y-71296000D01*
X121364884Y-71296000D01*
X121380123Y-71291525D01*
X121381328Y-71290135D01*
X121382999Y-71282452D01*
X121382999Y-71212087D01*
X121382736Y-71206337D01*
X121376964Y-71143519D01*
X121374354Y-71130486D01*
X121370442Y-71118003D01*
X121369158Y-71047018D01*
X121403703Y-70989156D01*
X121458718Y-70936674D01*
X121601402Y-70744900D01*
X121709733Y-70531828D01*
X121750409Y-70400830D01*
X121779032Y-70308651D01*
X121779033Y-70308645D01*
X121780616Y-70303548D01*
X121812023Y-70066589D01*
X121803055Y-69827726D01*
X121753970Y-69593789D01*
X121666171Y-69371467D01*
X121542168Y-69167117D01*
X121452103Y-69063326D01*
X121396850Y-68999652D01*
X121367311Y-68935092D01*
X121371781Y-68879396D01*
X121374847Y-68869611D01*
X121376848Y-68863226D01*
X121383500Y-68790831D01*
X121383499Y-68109170D01*
X121383234Y-68106278D01*
X121377459Y-68043428D01*
X121376848Y-68036774D01*
X121332990Y-67896822D01*
X121328563Y-67882695D01*
X121328562Y-67882693D01*
X121326291Y-67875446D01*
X121238711Y-67730835D01*
X121119165Y-67611289D01*
X120974554Y-67523709D01*
X120967307Y-67521438D01*
X120967305Y-67521437D01*
X120901388Y-67500780D01*
X120813226Y-67473152D01*
X120740831Y-67466500D01*
X120737933Y-67466500D01*
X119998078Y-67466501D01*
X119259170Y-67466501D01*
X119256311Y-67466764D01*
X119256303Y-67466764D01*
X119220802Y-67470026D01*
X119186774Y-67473152D01*
X119180395Y-67475151D01*
X119032695Y-67521437D01*
X119032693Y-67521438D01*
X119025446Y-67523709D01*
X118880835Y-67611289D01*
X118762529Y-67729595D01*
X118700217Y-67763621D01*
X118673434Y-67766500D01*
X113165545Y-67766500D01*
X113156976Y-67766208D01*
X113109042Y-67762940D01*
X113109038Y-67762940D01*
X113101466Y-67762424D01*
X113093989Y-67763729D01*
X113093986Y-67763729D01*
X113040853Y-67773002D01*
X113034329Y-67773965D01*
X112980809Y-67780442D01*
X112973265Y-67781355D01*
X112966155Y-67784042D01*
X112961252Y-67785246D01*
X112950766Y-67788114D01*
X112945974Y-67789561D01*
X112938496Y-67790866D01*
X112931544Y-67793918D01*
X112931543Y-67793918D01*
X112882159Y-67815595D01*
X112876054Y-67818086D01*
X112825618Y-67837145D01*
X112825615Y-67837147D01*
X112818511Y-67839831D01*
X112812254Y-67844131D01*
X112807786Y-67846467D01*
X112798340Y-67851725D01*
X112793974Y-67854307D01*
X112787015Y-67857362D01*
X112738196Y-67894823D01*
X112732877Y-67898686D01*
X112726666Y-67902955D01*
X112682174Y-67933534D01*
X112677123Y-67939203D01*
X112642268Y-67978323D01*
X112637287Y-67983598D01*
X112566290Y-68054595D01*
X112503978Y-68088621D01*
X112477195Y-68091500D01*
X112212928Y-68091500D01*
X112209682Y-68091837D01*
X112209678Y-68091837D01*
X112115765Y-68101581D01*
X112115761Y-68101582D01*
X112108907Y-68102293D01*
X112102371Y-68104474D01*
X112102369Y-68104474D01*
X111969605Y-68148768D01*
X111943893Y-68157346D01*
X111795969Y-68248884D01*
X111790796Y-68254066D01*
X111678242Y-68366816D01*
X111678238Y-68366821D01*
X111673071Y-68371997D01*
X111669231Y-68378227D01*
X111669230Y-68378228D01*
X111586364Y-68512662D01*
X111581791Y-68520080D01*
X111527026Y-68685191D01*
X111516500Y-68787928D01*
X111516500Y-69387072D01*
X111516837Y-69390318D01*
X111516837Y-69390322D01*
X111524915Y-69468172D01*
X111527293Y-69491093D01*
X111582346Y-69656107D01*
X111673884Y-69804031D01*
X111679066Y-69809204D01*
X111780786Y-69910747D01*
X111814865Y-69973030D01*
X111809862Y-70043850D01*
X111780941Y-70088938D01*
X111678041Y-70192018D01*
X111615759Y-70226097D01*
X111588868Y-70229000D01*
X111233545Y-70229000D01*
X111224976Y-70228708D01*
X111177042Y-70225440D01*
X111177038Y-70225440D01*
X111169466Y-70224924D01*
X111161989Y-70226229D01*
X111161986Y-70226229D01*
X111108853Y-70235502D01*
X111102329Y-70236465D01*
X111048809Y-70242942D01*
X111041265Y-70243855D01*
X111034155Y-70246542D01*
X111029252Y-70247746D01*
X111018766Y-70250614D01*
X111013974Y-70252061D01*
X111006496Y-70253366D01*
X110999544Y-70256418D01*
X110999543Y-70256418D01*
X110950159Y-70278095D01*
X110944054Y-70280586D01*
X110893618Y-70299645D01*
X110893615Y-70299647D01*
X110886511Y-70302331D01*
X110880254Y-70306631D01*
X110875786Y-70308967D01*
X110866340Y-70314225D01*
X110861974Y-70316807D01*
X110855015Y-70319862D01*
X110806196Y-70357323D01*
X110800877Y-70361186D01*
X110794666Y-70365455D01*
X110750174Y-70396034D01*
X110745123Y-70401703D01*
X110710268Y-70440823D01*
X110705287Y-70446098D01*
X109036541Y-72114844D01*
X109030276Y-72120698D01*
X108988330Y-72157290D01*
X108952934Y-72207655D01*
X108949022Y-72212920D01*
X108911065Y-72261328D01*
X108907939Y-72268252D01*
X108905329Y-72272561D01*
X108899958Y-72281976D01*
X108897573Y-72286424D01*
X108893205Y-72292639D01*
X108890446Y-72299716D01*
X108870858Y-72349957D01*
X108868306Y-72356029D01*
X108842986Y-72412105D01*
X108841600Y-72419582D01*
X108840090Y-72424402D01*
X108837118Y-72434835D01*
X108835870Y-72439696D01*
X108833111Y-72446772D01*
X108828986Y-72478104D01*
X108825082Y-72507762D01*
X108824050Y-72514278D01*
X108821113Y-72530123D01*
X108812839Y-72574767D01*
X108813276Y-72582347D01*
X108813276Y-72582348D01*
X108816291Y-72634642D01*
X108816500Y-72641894D01*
X108816500Y-82449437D01*
X108814390Y-82472397D01*
X108812839Y-82480767D01*
X108813276Y-82488347D01*
X108813276Y-82488348D01*
X108816291Y-82540642D01*
X108816500Y-82547894D01*
X108816500Y-91954193D01*
X108796498Y-92022314D01*
X108742842Y-92068807D01*
X108723112Y-92075900D01*
X108414326Y-92158639D01*
X108071006Y-92290427D01*
X108068066Y-92291925D01*
X107746284Y-92455881D01*
X107746277Y-92455885D01*
X107743343Y-92457380D01*
X107740577Y-92459176D01*
X107740574Y-92459178D01*
X107609847Y-92544073D01*
X107434925Y-92657668D01*
X107149133Y-92889098D01*
X106889098Y-93149133D01*
X106657668Y-93434925D01*
X106457380Y-93743343D01*
X106290427Y-94071006D01*
X106158639Y-94414326D01*
X106063459Y-94769541D01*
X106005931Y-95132759D01*
X105986685Y-95500000D01*
X105508000Y-95500000D01*
X105508000Y-59500000D01*
X105986685Y-59500000D01*
X106005931Y-59867241D01*
X106063459Y-60230459D01*
X106158639Y-60585674D01*
X106290427Y-60928994D01*
X106457380Y-61256657D01*
X106657668Y-61565075D01*
X106889098Y-61850867D01*
X107149133Y-62110902D01*
X107434925Y-62342332D01*
X107743342Y-62542620D01*
X107746276Y-62544115D01*
X107746283Y-62544119D01*
X108068066Y-62708075D01*
X108071006Y-62709573D01*
X108414326Y-62841361D01*
X108769541Y-62936541D01*
X108962558Y-62967112D01*
X109129511Y-62993555D01*
X109129519Y-62993556D01*
X109132759Y-62994069D01*
X109500000Y-63013315D01*
X109867241Y-62994069D01*
X109870481Y-62993556D01*
X109870489Y-62993555D01*
X110037442Y-62967112D01*
X110230459Y-62936541D01*
X110585674Y-62841361D01*
X110928994Y-62709573D01*
X110931934Y-62708075D01*
X111253717Y-62544119D01*
X111253724Y-62544115D01*
X111256658Y-62542620D01*
X111565075Y-62342332D01*
X111850867Y-62110902D01*
X112110902Y-61850867D01*
X112342332Y-61565075D01*
X112542620Y-61256657D01*
X112709573Y-60928994D01*
X112841361Y-60585674D01*
X112924100Y-60276889D01*
X112961052Y-60216266D01*
X113024913Y-60185245D01*
X113045807Y-60183500D01*
X121664695Y-60183500D01*
X121732816Y-60203502D01*
X121753790Y-60220405D01*
X126779595Y-65246210D01*
X126813621Y-65308522D01*
X126816500Y-65335305D01*
X126816500Y-68176191D01*
X126796498Y-68244312D01*
X126779675Y-68265206D01*
X126673071Y-68371997D01*
X126669231Y-68378227D01*
X126669230Y-68378228D01*
X126586364Y-68512662D01*
X126581791Y-68520080D01*
X126527026Y-68685191D01*
X126516500Y-68787928D01*
X126516500Y-69387072D01*
X126516837Y-69390318D01*
X126516837Y-69390322D01*
X126524915Y-69468172D01*
X126527293Y-69491093D01*
X126582346Y-69656107D01*
X126673884Y-69804031D01*
X126679066Y-69809204D01*
X126780786Y-69910747D01*
X126814865Y-69973030D01*
X126809862Y-70043850D01*
X126780941Y-70088937D01*
X126678246Y-70191812D01*
X126678242Y-70191817D01*
X126673071Y-70196997D01*
X126669231Y-70203227D01*
X126669230Y-70203228D01*
X126586364Y-70337662D01*
X126581791Y-70345080D01*
X126527026Y-70510191D01*
X126526326Y-70517027D01*
X126526325Y-70517030D01*
X126521049Y-70568526D01*
X126516500Y-70612928D01*
X126516500Y-71212072D01*
X126516837Y-71215318D01*
X126516837Y-71215322D01*
X126526362Y-71307118D01*
X126527293Y-71316093D01*
X126529474Y-71322629D01*
X126529474Y-71322631D01*
X126553079Y-71393383D01*
X126582346Y-71481107D01*
X126673884Y-71629031D01*
X126679066Y-71634204D01*
X126779518Y-71734481D01*
X126813597Y-71796763D01*
X126816500Y-71823654D01*
X126816500Y-74846279D01*
X126796498Y-74914400D01*
X126742842Y-74960893D01*
X126702026Y-74971751D01*
X126686774Y-74973152D01*
X126680395Y-74975151D01*
X126532695Y-75021437D01*
X126532693Y-75021438D01*
X126525446Y-75023709D01*
X126380835Y-75111289D01*
X126261289Y-75230835D01*
X126173709Y-75375446D01*
X126171438Y-75382693D01*
X126171437Y-75382695D01*
X126167010Y-75396822D01*
X126123152Y-75536774D01*
X126116500Y-75609169D01*
X126116501Y-76290830D01*
X126116764Y-76293689D01*
X126116764Y-76293697D01*
X126120026Y-76329198D01*
X126123152Y-76363226D01*
X126129155Y-76382382D01*
X126130440Y-76453365D01*
X126095892Y-76511230D01*
X126045144Y-76559641D01*
X126045139Y-76559646D01*
X126041282Y-76563326D01*
X125898598Y-76755100D01*
X125896182Y-76759851D01*
X125896180Y-76759855D01*
X125841757Y-76866898D01*
X125790267Y-76968172D01*
X125781120Y-76997631D01*
X125720968Y-77191349D01*
X125720967Y-77191355D01*
X125719384Y-77196452D01*
X125687977Y-77433411D01*
X125696945Y-77672274D01*
X125746030Y-77906211D01*
X125833829Y-78128533D01*
X125957832Y-78332883D01*
X125961329Y-78336913D01*
X126103535Y-78500791D01*
X126133074Y-78565350D01*
X126128604Y-78621049D01*
X126125647Y-78630486D01*
X126123035Y-78643528D01*
X126117266Y-78706312D01*
X126117000Y-78712101D01*
X126117000Y-78777885D01*
X126121475Y-78793124D01*
X126122865Y-78794329D01*
X126130548Y-78796000D01*
X126520094Y-78796000D01*
X126563085Y-78803561D01*
X126572885Y-78807118D01*
X126731753Y-78864784D01*
X126737002Y-78865733D01*
X126737005Y-78865734D01*
X126962885Y-78906580D01*
X126962893Y-78906581D01*
X126966969Y-78907318D01*
X126985359Y-78908185D01*
X126990544Y-78908430D01*
X126990551Y-78908430D01*
X126992032Y-78908500D01*
X127960012Y-78908500D01*
X128138175Y-78893383D01*
X128143339Y-78892043D01*
X128143343Y-78892042D01*
X128364375Y-78834673D01*
X128364380Y-78834671D01*
X128369540Y-78833332D01*
X128407809Y-78816093D01*
X128427733Y-78807118D01*
X128479484Y-78796000D01*
X128864884Y-78796000D01*
X128880123Y-78791525D01*
X128881328Y-78790135D01*
X128882999Y-78782452D01*
X128882999Y-78712087D01*
X128882736Y-78706337D01*
X128876964Y-78643519D01*
X128874354Y-78630486D01*
X128870442Y-78618003D01*
X128869158Y-78547018D01*
X128903703Y-78489156D01*
X128958718Y-78436674D01*
X129101402Y-78244900D01*
X129209733Y-78031828D01*
X129268089Y-77843893D01*
X129279032Y-77808651D01*
X129279033Y-77808645D01*
X129280616Y-77803548D01*
X129312023Y-77566589D01*
X129303055Y-77327726D01*
X129253970Y-77093789D01*
X129166171Y-76871467D01*
X129042168Y-76667117D01*
X128952103Y-76563326D01*
X128896850Y-76499652D01*
X128867311Y-76435092D01*
X128871781Y-76379396D01*
X128874847Y-76369611D01*
X128876848Y-76363226D01*
X128883500Y-76290831D01*
X128883499Y-75609170D01*
X128883234Y-75606278D01*
X128877459Y-75543428D01*
X128876848Y-75536774D01*
X128832990Y-75396822D01*
X128828563Y-75382695D01*
X128828562Y-75382693D01*
X128826291Y-75375446D01*
X128738711Y-75230835D01*
X128619165Y-75111289D01*
X128474554Y-75023709D01*
X128467307Y-75021438D01*
X128467305Y-75021437D01*
X128401388Y-75000780D01*
X128313226Y-74973152D01*
X128301873Y-74972109D01*
X128297969Y-74971750D01*
X128231964Y-74945598D01*
X128190577Y-74887912D01*
X128183500Y-74846279D01*
X128183500Y-71823809D01*
X128203502Y-71755688D01*
X128220327Y-71734791D01*
X128220637Y-71734481D01*
X128326929Y-71628003D01*
X128344867Y-71598903D01*
X128414369Y-71486150D01*
X128414370Y-71486148D01*
X128418209Y-71479920D01*
X128472974Y-71314809D01*
X128474127Y-71303561D01*
X128483172Y-71215271D01*
X128483500Y-71212072D01*
X128483500Y-70612928D01*
X128475579Y-70536586D01*
X128473419Y-70515765D01*
X128473418Y-70515761D01*
X128472707Y-70508907D01*
X128449993Y-70440823D01*
X128423423Y-70361186D01*
X128417654Y-70343893D01*
X128326116Y-70195969D01*
X128297039Y-70166943D01*
X128219214Y-70089253D01*
X128185135Y-70026970D01*
X128190138Y-69956150D01*
X128219059Y-69911063D01*
X128321754Y-69808188D01*
X128321758Y-69808183D01*
X128326929Y-69803003D01*
X128395754Y-69691349D01*
X128414369Y-69661150D01*
X128414370Y-69661148D01*
X128418209Y-69654920D01*
X128472974Y-69489809D01*
X128475679Y-69463414D01*
X128483172Y-69390271D01*
X128483500Y-69387072D01*
X128483500Y-68787928D01*
X128472707Y-68683907D01*
X128417654Y-68518893D01*
X128326116Y-68370969D01*
X128220482Y-68265519D01*
X128186403Y-68203237D01*
X128183500Y-68176346D01*
X128183500Y-65028056D01*
X128183792Y-65019486D01*
X128183986Y-65016642D01*
X128187577Y-64963966D01*
X128185018Y-64949300D01*
X128176997Y-64903342D01*
X128176034Y-64896819D01*
X128169558Y-64843308D01*
X128169558Y-64843307D01*
X128168645Y-64835765D01*
X128165959Y-64828655D01*
X128164754Y-64823752D01*
X128161895Y-64813300D01*
X128160441Y-64808484D01*
X128159134Y-64800996D01*
X128134390Y-64744627D01*
X128131925Y-64738588D01*
X128110169Y-64681011D01*
X128105864Y-64674748D01*
X128103517Y-64670258D01*
X128098257Y-64660807D01*
X128095690Y-64656466D01*
X128092639Y-64649515D01*
X128088020Y-64643495D01*
X128088015Y-64643487D01*
X128055181Y-64600698D01*
X128051319Y-64595384D01*
X128016466Y-64544674D01*
X127971676Y-64504767D01*
X127966402Y-64499787D01*
X122503156Y-59036541D01*
X122497302Y-59030276D01*
X122465704Y-58994055D01*
X122460710Y-58988330D01*
X122410345Y-58952934D01*
X122405077Y-58949020D01*
X122362649Y-58915752D01*
X122356672Y-58911065D01*
X122349748Y-58907939D01*
X122345439Y-58905329D01*
X122336024Y-58899958D01*
X122331576Y-58897573D01*
X122325361Y-58893205D01*
X122268039Y-58870856D01*
X122261971Y-58868306D01*
X122205895Y-58842986D01*
X122198418Y-58841600D01*
X122193598Y-58840090D01*
X122183165Y-58837118D01*
X122178304Y-58835870D01*
X122171228Y-58833111D01*
X122110238Y-58825082D01*
X122103722Y-58824050D01*
X122061410Y-58816208D01*
X122043233Y-58812839D01*
X122035653Y-58813276D01*
X122035652Y-58813276D01*
X121983358Y-58816291D01*
X121976106Y-58816500D01*
X113045807Y-58816500D01*
X112977686Y-58796498D01*
X112931193Y-58742842D01*
X112924100Y-58723111D01*
X112841361Y-58414326D01*
X112709573Y-58071006D01*
X112542620Y-57743343D01*
X112342332Y-57434925D01*
X112110902Y-57149133D01*
X111850867Y-56889098D01*
X111565075Y-56657668D01*
X111256658Y-56457380D01*
X111253724Y-56455885D01*
X111253717Y-56455881D01*
X110931934Y-56291925D01*
X110928994Y-56290427D01*
X110585674Y-56158639D01*
X110230459Y-56063459D01*
X110037442Y-56032888D01*
X109870489Y-56006445D01*
X109870481Y-56006444D01*
X109867241Y-56005931D01*
X109500000Y-55986685D01*
X109132759Y-56005931D01*
X109129519Y-56006444D01*
X109129511Y-56006445D01*
X108962558Y-56032888D01*
X108769541Y-56063459D01*
X108414326Y-56158639D01*
X108071006Y-56290427D01*
X108068066Y-56291925D01*
X107746284Y-56455881D01*
X107746277Y-56455885D01*
X107743343Y-56457380D01*
X107434925Y-56657668D01*
X107149133Y-56889098D01*
X106889098Y-57149133D01*
X106657668Y-57434925D01*
X106457380Y-57743343D01*
X106290427Y-58071006D01*
X106158639Y-58414326D01*
X106063459Y-58769541D01*
X106035698Y-58944819D01*
X106021637Y-59033598D01*
X106005931Y-59132759D01*
X105986685Y-59500000D01*
X105508000Y-59500000D01*
X105508000Y-55634000D01*
X105528002Y-55565879D01*
X105581658Y-55519386D01*
X105634000Y-55508000D01*
X149366000Y-55508000D01*
X149434121Y-55528002D01*
G37*
G04 #@! TD.AperFunction*
M02*
