(footprint "BatteryHolder_Linx_CR2032_CR2025_BAT-HLD-001" (version 20211014) (generator pcbnew)
  (layer "F.Cu")
  (tedit 62140C08)
  (descr "https://linxtechnologies.com/wp/product/battery-holders/")
  (tags "battery holder coin cell cr2032 cr2025")
  (attr smd)
  (fp_text reference "REF**" (at -8.382 7.112 unlocked) (layer "F.SilkS")
    (effects (font (size 1 1) (thickness 0.153)))
    (tstamp 684746c4-1887-4b1d-9bbf-734e8ddab14d)
  )
  (fp_text value "BatteryHolder_Linx_CR2032_CR2025_BAT-HLD-001" (at 0 10.16 unlocked) (layer "F.Fab")
    (effects (font (size 1 1) (thickness 0.15)))
    (tstamp 87d36f32-7889-4541-b24f-598053c7ce5d)
  )
  (fp_text user "${REFERENCE}" (at 0 11.938 unlocked) (layer "F.Fab")
    (effects (font (size 1 1) (thickness 0.15)))
    (tstamp a9898807-7e58-4348-99a0-c86d6ec5e1ed)
  )
  (fp_line (start 10.922 -5.588) (end 8.636 -8.128) (layer "F.SilkS") (width 0.153) (tstamp 0ef3391c-448f-4046-9390-a1228c05017a))
  (fp_line (start -10.922 3.048) (end -10.922 7.874) (layer "F.SilkS") (width 0.153) (tstamp 12f181c2-3244-4e4c-bb32-5b41edbd19f3))
  (fp_line (start 10.922 3.048) (end 10.922 7.874) (layer "F.SilkS") (width 0.153) (tstamp 2a87db75-06c1-42be-8ebe-b406cb7d5e92))
  (fp_line (start 10.922 -5.588) (end 10.922 -3.048) (layer "F.SilkS") (width 0.153) (tstamp 43630567-34de-4581-b75e-c885d002c056))
  (fp_line (start 4.572 -8.128) (end 8.636 -8.128) (layer "F.SilkS") (width 0.153) (tstamp 50e375c4-e710-45d7-9f12-67035b7382c7))
  (fp_line (start -10.922 -5.588) (end -8.636 -8.128) (layer "F.SilkS") (width 0.153) (tstamp 7b9c04a7-a80d-4646-b6f3-75416f43204e))
  (fp_line (start -8.636 -8.128) (end -4.572 -8.128) (layer "F.SilkS") (width 0.153) (tstamp 9fc7ac44-cb8c-4b0f-a19b-9c4d4ecd6ffd))
  (fp_line (start -10.922 -5.588) (end -10.922 -3.048) (layer "F.SilkS") (width 0.153) (tstamp e35c56f9-4713-4571-acdb-6ae2f2073fad))
  (fp_rect (start -12.954 -9.144) (end 12.9286 27.3304) (layer "F.CrtYd") (width 0.05) (fill none) (tstamp 2e9cff03-8bf4-4aa6-adf9-4cd5a9013698))
  (fp_rect (start -10.541 -7.747) (end 10.541 7.747) (layer "F.Fab") (width 0.1) (fill none) (tstamp 2c9ee86e-12b4-45ae-ab79-c8633209abf2))
  (pad "1" smd roundrect (at -11.43 0) (size 2.54 5.08) (layers "F.Cu" "F.Paste" "F.Mask") (roundrect_rratio 0.1) (tstamp 44a8eceb-d6a8-40b8-873d-b3d3116a2d8a))
  (pad "1" smd roundrect (at 11.43 0) (size 2.54 5.08) (layers "F.Cu" "F.Paste" "F.Mask") (roundrect_rratio 0.1) (tstamp dc4176ff-47de-4b94-b1a0-74c034375f1f))
  (pad "2" smd circle (at 0 0) (size 17.78 17.78) (layers "F.Cu" "F.Paste" "F.Mask") (tstamp 0f2f533c-6efa-4396-afac-bd28ecf14786))
)
